<svg width="1200" height="732" viewBox="0 0 1200 732" fill="none" xmlns="http://www.w3.org/2000/svg">
<g clip-path="url(#clip0)">
<g opacity="0.25">
<mask id="mask0" mask-type="alpha" maskUnits="userSpaceOnUse" x="0" y="-150" width="1200" height="883">
<circle cx="1.222" cy="22.3013" r="1.222" fill="white"/>
<circle cx="25.6614" cy="22.3013" r="1.222" fill="white"/>
<circle cx="50.1019" cy="22.3013" r="1.222" fill="white"/>
<circle cx="74.5413" cy="22.3013" r="1.222" fill="white"/>
<circle cx="98.9818" cy="22.3013" r="1.222" fill="white"/>
<circle cx="123.421" cy="22.3013" r="1.222" fill="white"/>
<circle cx="147.862" cy="22.3013" r="1.222" fill="white"/>
<circle cx="172.301" cy="22.3013" r="1.222" fill="white"/>
<circle cx="196.742" cy="22.3013" r="1.222" fill="white"/>
<circle cx="221.181" cy="22.3013" r="1.222" fill="white"/>
<circle cx="245.621" cy="22.3013" r="1.222" fill="white"/>
<circle cx="270.061" cy="22.3013" r="1.222" fill="white"/>
<circle cx="294.501" cy="22.3013" r="1.222" fill="white"/>
<circle cx="318.941" cy="22.3013" r="1.222" fill="white"/>
<circle cx="343.381" cy="22.3013" r="1.222" fill="white"/>
<circle cx="367.821" cy="22.3013" r="1.222" fill="white"/>
<circle cx="392.261" cy="22.3013" r="1.222" fill="white"/>
<circle cx="416.701" cy="22.3013" r="1.222" fill="white"/>
<circle cx="441.141" cy="22.3013" r="1.222" fill="white"/>
<circle cx="465.58" cy="22.3013" r="1.222" fill="white"/>
<circle cx="490.021" cy="22.3013" r="1.222" fill="white"/>
<circle cx="514.46" cy="22.3013" r="1.222" fill="white"/>
<circle cx="538.9" cy="22.3013" r="1.222" fill="white"/>
<circle cx="563.34" cy="22.3013" r="1.222" fill="white"/>
<circle cx="587.78" cy="22.3013" r="1.222" fill="white"/>
<circle cx="612.22" cy="22.3013" r="1.222" fill="white"/>
<circle cx="636.659" cy="22.3013" r="1.222" fill="white"/>
<circle cx="661.1" cy="22.3013" r="1.222" fill="white"/>
<circle cx="685.539" cy="22.3013" r="1.222" fill="white"/>
<circle cx="709.98" cy="22.3013" r="1.222" fill="white"/>
<circle cx="734.419" cy="22.3013" r="1.222" fill="white"/>
<circle cx="758.86" cy="22.3013" r="1.222" fill="white"/>
<circle cx="783.299" cy="22.3013" r="1.222" fill="white"/>
<circle cx="807.74" cy="22.3013" r="1.222" fill="white"/>
<circle cx="832.179" cy="22.3013" r="1.222" fill="white"/>
<circle cx="856.619" cy="22.3013" r="1.222" fill="white"/>
<circle cx="881.059" cy="22.3013" r="1.222" fill="white"/>
<circle cx="905.499" cy="22.3013" r="1.222" fill="white"/>
<circle cx="929.939" cy="22.3013" r="1.222" fill="white"/>
<circle cx="954.379" cy="22.3013" r="1.222" fill="white"/>
<circle cx="978.819" cy="22.3013" r="1.222" fill="white"/>
<circle cx="1003.26" cy="22.3013" r="1.222" fill="white"/>
<circle cx="1027.7" cy="22.3013" r="1.222" fill="white"/>
<circle cx="1052.14" cy="22.3013" r="1.222" fill="white"/>
<circle cx="1076.58" cy="22.3013" r="1.222" fill="white"/>
<circle cx="1101.02" cy="22.3013" r="1.222" fill="white"/>
<circle cx="1125.46" cy="22.3013" r="1.222" fill="white"/>
<circle cx="1149.9" cy="22.3013" r="1.222" fill="white"/>
<circle cx="1174.34" cy="22.3013" r="1.222" fill="white"/>
<circle cx="1198.78" cy="22.3013" r="1.222" fill="white"/>
<circle cx="1.222" cy="46.7413" r="1.222" fill="white"/>
<circle cx="25.6614" cy="46.7413" r="1.222" fill="white"/>
<circle cx="50.1019" cy="46.7413" r="1.222" fill="white"/>
<circle cx="74.5413" cy="46.7413" r="1.222" fill="white"/>
<circle cx="98.9818" cy="46.7413" r="1.222" fill="white"/>
<circle cx="123.421" cy="46.7413" r="1.222" fill="white"/>
<circle cx="147.862" cy="46.7413" r="1.222" fill="white"/>
<circle cx="172.301" cy="46.7413" r="1.222" fill="white"/>
<circle cx="196.742" cy="46.7413" r="1.222" fill="white"/>
<circle cx="221.181" cy="46.7413" r="1.222" fill="white"/>
<circle cx="245.621" cy="46.7413" r="1.222" fill="white"/>
<circle cx="270.061" cy="46.7413" r="1.222" fill="white"/>
<circle cx="294.501" cy="46.7413" r="1.222" fill="white"/>
<circle cx="318.941" cy="46.7413" r="1.222" fill="white"/>
<circle cx="343.381" cy="46.7413" r="1.222" fill="white"/>
<circle cx="367.821" cy="46.7413" r="1.222" fill="white"/>
<circle cx="392.261" cy="46.7413" r="1.222" fill="white"/>
<circle cx="416.701" cy="46.7413" r="1.222" fill="white"/>
<circle cx="441.141" cy="46.7413" r="1.222" fill="white"/>
<circle cx="465.58" cy="46.7413" r="1.222" fill="white"/>
<circle cx="490.021" cy="46.7413" r="1.222" fill="white"/>
<circle cx="514.46" cy="46.7413" r="1.222" fill="white"/>
<circle cx="538.9" cy="46.7413" r="1.222" fill="white"/>
<circle cx="563.34" cy="46.7413" r="1.222" fill="white"/>
<circle cx="587.78" cy="46.7413" r="1.222" fill="white"/>
<circle cx="612.22" cy="46.7413" r="1.222" fill="white"/>
<circle cx="636.659" cy="46.7413" r="1.222" fill="white"/>
<circle cx="661.1" cy="46.7413" r="1.222" fill="white"/>
<circle cx="685.539" cy="46.7413" r="1.222" fill="white"/>
<circle cx="709.98" cy="46.7413" r="1.222" fill="white"/>
<circle cx="734.419" cy="46.7413" r="1.222" fill="white"/>
<circle cx="758.86" cy="46.7413" r="1.222" fill="white"/>
<circle cx="783.299" cy="46.7413" r="1.222" fill="white"/>
<circle cx="807.74" cy="46.7413" r="1.222" fill="white"/>
<circle cx="832.179" cy="46.7413" r="1.222" fill="white"/>
<circle cx="856.619" cy="46.7413" r="1.222" fill="white"/>
<circle cx="881.059" cy="46.7413" r="1.222" fill="white"/>
<circle cx="905.499" cy="46.7413" r="1.222" fill="white"/>
<circle cx="929.939" cy="46.7413" r="1.222" fill="white"/>
<circle cx="954.379" cy="46.7413" r="1.222" fill="white"/>
<circle cx="978.819" cy="46.7413" r="1.222" fill="white"/>
<circle cx="1003.26" cy="46.7413" r="1.222" fill="white"/>
<circle cx="1027.7" cy="46.7413" r="1.222" fill="white"/>
<circle cx="1052.14" cy="46.7413" r="1.222" fill="white"/>
<circle cx="1076.58" cy="46.7413" r="1.222" fill="white"/>
<circle cx="1101.02" cy="46.7413" r="1.222" fill="white"/>
<circle cx="1125.46" cy="46.7413" r="1.222" fill="white"/>
<circle cx="1149.9" cy="46.7413" r="1.222" fill="white"/>
<circle cx="1174.34" cy="46.7413" r="1.222" fill="white"/>
<circle cx="1198.78" cy="46.7413" r="1.222" fill="white"/>
<circle cx="1.222" cy="71.1812" r="1.222" fill="white"/>
<circle cx="25.6614" cy="71.1812" r="1.222" fill="white"/>
<circle cx="50.1019" cy="71.1812" r="1.222" fill="white"/>
<circle cx="74.5413" cy="71.1812" r="1.222" fill="white"/>
<circle cx="98.9818" cy="71.1812" r="1.222" fill="white"/>
<circle cx="123.421" cy="71.1812" r="1.222" fill="white"/>
<circle cx="147.862" cy="71.1812" r="1.222" fill="white"/>
<circle cx="172.301" cy="71.1812" r="1.222" fill="white"/>
<circle cx="196.742" cy="71.1812" r="1.222" fill="white"/>
<circle cx="221.181" cy="71.1812" r="1.222" fill="white"/>
<circle cx="245.621" cy="71.1812" r="1.222" fill="white"/>
<circle cx="270.061" cy="71.1812" r="1.222" fill="white"/>
<circle cx="294.501" cy="71.1812" r="1.222" fill="white"/>
<circle cx="318.941" cy="71.1812" r="1.222" fill="white"/>
<circle cx="343.381" cy="71.1812" r="1.222" fill="white"/>
<circle cx="367.821" cy="71.1812" r="1.222" fill="white"/>
<circle cx="392.261" cy="71.1812" r="1.222" fill="white"/>
<circle cx="416.701" cy="71.1812" r="1.222" fill="white"/>
<circle cx="441.141" cy="71.1812" r="1.222" fill="white"/>
<circle cx="465.58" cy="71.1812" r="1.222" fill="white"/>
<circle cx="490.021" cy="71.1812" r="1.222" fill="white"/>
<circle cx="514.46" cy="71.1812" r="1.222" fill="white"/>
<circle cx="538.9" cy="71.1812" r="1.222" fill="white"/>
<circle cx="563.34" cy="71.1812" r="1.222" fill="white"/>
<circle cx="587.78" cy="71.1812" r="1.222" fill="white"/>
<circle cx="612.22" cy="71.1812" r="1.222" fill="white"/>
<circle cx="636.659" cy="71.1812" r="1.222" fill="white"/>
<circle cx="661.1" cy="71.1812" r="1.222" fill="white"/>
<circle cx="685.539" cy="71.1812" r="1.222" fill="white"/>
<circle cx="709.98" cy="71.1812" r="1.222" fill="white"/>
<circle cx="734.419" cy="71.1812" r="1.222" fill="white"/>
<circle cx="758.86" cy="71.1812" r="1.222" fill="white"/>
<circle cx="783.299" cy="71.1812" r="1.222" fill="white"/>
<circle cx="807.74" cy="71.1812" r="1.222" fill="white"/>
<circle cx="832.179" cy="71.1812" r="1.222" fill="white"/>
<circle cx="856.619" cy="71.1812" r="1.222" fill="white"/>
<circle cx="881.059" cy="71.1812" r="1.222" fill="white"/>
<circle cx="905.499" cy="71.1812" r="1.222" fill="white"/>
<circle cx="929.939" cy="71.1812" r="1.222" fill="white"/>
<circle cx="954.379" cy="71.1812" r="1.222" fill="white"/>
<circle cx="978.819" cy="71.1812" r="1.222" fill="white"/>
<circle cx="1003.26" cy="71.1812" r="1.222" fill="white"/>
<circle cx="1027.7" cy="71.1812" r="1.222" fill="white"/>
<circle cx="1052.14" cy="71.1812" r="1.222" fill="white"/>
<circle cx="1076.58" cy="71.1812" r="1.222" fill="white"/>
<circle cx="1101.02" cy="71.1812" r="1.222" fill="white"/>
<circle cx="1125.46" cy="71.1812" r="1.222" fill="white"/>
<circle cx="1149.9" cy="71.1812" r="1.222" fill="white"/>
<circle cx="1174.34" cy="71.1812" r="1.222" fill="white"/>
<circle cx="1198.78" cy="71.1812" r="1.222" fill="white"/>
<circle cx="1.222" cy="95.6212" r="1.222" fill="white"/>
<circle cx="25.6614" cy="95.6212" r="1.222" fill="white"/>
<circle cx="50.1019" cy="95.6212" r="1.222" fill="white"/>
<circle cx="74.5413" cy="95.6212" r="1.222" fill="white"/>
<circle cx="98.9818" cy="95.6212" r="1.222" fill="white"/>
<circle cx="123.421" cy="95.6212" r="1.222" fill="white"/>
<circle cx="147.862" cy="95.6212" r="1.222" fill="white"/>
<circle cx="172.301" cy="95.6212" r="1.222" fill="white"/>
<circle cx="196.742" cy="95.6212" r="1.222" fill="white"/>
<circle cx="221.181" cy="95.6212" r="1.222" fill="white"/>
<circle cx="245.621" cy="95.6212" r="1.222" fill="white"/>
<circle cx="270.061" cy="95.6212" r="1.222" fill="white"/>
<circle cx="294.501" cy="95.6212" r="1.222" fill="white"/>
<circle cx="318.941" cy="95.6212" r="1.222" fill="white"/>
<circle cx="343.381" cy="95.6212" r="1.222" fill="white"/>
<circle cx="367.821" cy="95.6212" r="1.222" fill="white"/>
<circle cx="392.261" cy="95.6212" r="1.222" fill="white"/>
<circle cx="416.701" cy="95.6212" r="1.222" fill="white"/>
<circle cx="441.141" cy="95.6212" r="1.222" fill="white"/>
<circle cx="465.58" cy="95.6212" r="1.222" fill="white"/>
<circle cx="490.021" cy="95.6212" r="1.222" fill="white"/>
<circle cx="514.46" cy="95.6212" r="1.222" fill="white"/>
<circle cx="538.9" cy="95.6212" r="1.222" fill="white"/>
<circle cx="563.34" cy="95.6212" r="1.222" fill="white"/>
<circle cx="587.78" cy="95.6212" r="1.222" fill="white"/>
<circle cx="612.22" cy="95.6212" r="1.222" fill="white"/>
<circle cx="636.659" cy="95.6212" r="1.222" fill="white"/>
<circle cx="661.1" cy="95.6212" r="1.222" fill="white"/>
<circle cx="685.539" cy="95.6212" r="1.222" fill="white"/>
<circle cx="709.98" cy="95.6212" r="1.222" fill="white"/>
<circle cx="734.419" cy="95.6212" r="1.222" fill="white"/>
<circle cx="758.86" cy="95.6212" r="1.222" fill="white"/>
<circle cx="783.299" cy="95.6212" r="1.222" fill="white"/>
<circle cx="807.74" cy="95.6212" r="1.222" fill="white"/>
<circle cx="832.179" cy="95.6212" r="1.222" fill="white"/>
<circle cx="856.619" cy="95.6212" r="1.222" fill="white"/>
<circle cx="881.059" cy="95.6212" r="1.222" fill="white"/>
<circle cx="905.499" cy="95.6212" r="1.222" fill="white"/>
<circle cx="929.939" cy="95.6212" r="1.222" fill="white"/>
<circle cx="954.379" cy="95.6212" r="1.222" fill="white"/>
<circle cx="978.819" cy="95.6212" r="1.222" fill="white"/>
<circle cx="1003.26" cy="95.6212" r="1.222" fill="white"/>
<circle cx="1027.7" cy="95.6212" r="1.222" fill="white"/>
<circle cx="1052.14" cy="95.6212" r="1.222" fill="white"/>
<circle cx="1076.58" cy="95.6212" r="1.222" fill="white"/>
<circle cx="1101.02" cy="95.6212" r="1.222" fill="white"/>
<circle cx="1125.46" cy="95.6212" r="1.222" fill="white"/>
<circle cx="1149.9" cy="95.6212" r="1.222" fill="white"/>
<circle cx="1174.34" cy="95.6212" r="1.222" fill="white"/>
<circle cx="1198.78" cy="95.6212" r="1.222" fill="white"/>
<circle cx="1.222" cy="120.061" r="1.222" fill="white"/>
<circle cx="25.6614" cy="120.061" r="1.222" fill="white"/>
<circle cx="50.1019" cy="120.061" r="1.222" fill="white"/>
<circle cx="74.5413" cy="120.061" r="1.222" fill="white"/>
<circle cx="98.9818" cy="120.061" r="1.222" fill="white"/>
<circle cx="123.421" cy="120.061" r="1.222" fill="white"/>
<circle cx="147.862" cy="120.061" r="1.222" fill="white"/>
<circle cx="172.301" cy="120.061" r="1.222" fill="white"/>
<circle cx="196.742" cy="120.061" r="1.222" fill="white"/>
<circle cx="221.181" cy="120.061" r="1.222" fill="white"/>
<circle cx="245.621" cy="120.061" r="1.222" fill="white"/>
<circle cx="270.061" cy="120.061" r="1.222" fill="white"/>
<circle cx="294.501" cy="120.061" r="1.222" fill="white"/>
<circle cx="318.941" cy="120.061" r="1.222" fill="white"/>
<circle cx="343.381" cy="120.061" r="1.222" fill="white"/>
<circle cx="367.821" cy="120.061" r="1.222" fill="white"/>
<circle cx="392.261" cy="120.061" r="1.222" fill="white"/>
<circle cx="416.701" cy="120.061" r="1.222" fill="white"/>
<circle cx="441.141" cy="120.061" r="1.222" fill="white"/>
<circle cx="465.58" cy="120.061" r="1.222" fill="white"/>
<circle cx="490.021" cy="120.061" r="1.222" fill="white"/>
<circle cx="514.46" cy="120.061" r="1.222" fill="white"/>
<circle cx="538.9" cy="120.061" r="1.222" fill="white"/>
<circle cx="563.34" cy="120.061" r="1.222" fill="white"/>
<circle cx="587.78" cy="120.061" r="1.222" fill="white"/>
<circle cx="612.22" cy="120.061" r="1.222" fill="white"/>
<circle cx="636.659" cy="120.061" r="1.222" fill="white"/>
<circle cx="661.1" cy="120.061" r="1.222" fill="white"/>
<circle cx="685.539" cy="120.061" r="1.222" fill="white"/>
<circle cx="709.98" cy="120.061" r="1.222" fill="white"/>
<circle cx="734.419" cy="120.061" r="1.222" fill="white"/>
<circle cx="758.86" cy="120.061" r="1.222" fill="white"/>
<circle cx="783.299" cy="120.061" r="1.222" fill="white"/>
<circle cx="807.74" cy="120.061" r="1.222" fill="white"/>
<circle cx="832.179" cy="120.061" r="1.222" fill="white"/>
<circle cx="856.619" cy="120.061" r="1.222" fill="white"/>
<circle cx="881.059" cy="120.061" r="1.222" fill="white"/>
<circle cx="905.499" cy="120.061" r="1.222" fill="white"/>
<circle cx="929.939" cy="120.061" r="1.222" fill="white"/>
<circle cx="954.379" cy="120.061" r="1.222" fill="white"/>
<circle cx="978.819" cy="120.061" r="1.222" fill="white"/>
<circle cx="1003.26" cy="120.061" r="1.222" fill="white"/>
<circle cx="1027.7" cy="120.061" r="1.222" fill="white"/>
<circle cx="1052.14" cy="120.061" r="1.222" fill="white"/>
<circle cx="1076.58" cy="120.061" r="1.222" fill="white"/>
<circle cx="1101.02" cy="120.061" r="1.222" fill="white"/>
<circle cx="1125.46" cy="120.061" r="1.222" fill="white"/>
<circle cx="1149.9" cy="120.061" r="1.222" fill="white"/>
<circle cx="1174.34" cy="120.061" r="1.222" fill="white"/>
<circle cx="1198.78" cy="120.061" r="1.222" fill="white"/>
<circle cx="1.222" cy="144.501" r="1.222" fill="white"/>
<circle cx="25.6614" cy="144.501" r="1.222" fill="white"/>
<circle cx="50.1019" cy="144.501" r="1.222" fill="white"/>
<circle cx="74.5413" cy="144.501" r="1.222" fill="white"/>
<circle cx="98.9818" cy="144.501" r="1.222" fill="white"/>
<circle cx="123.421" cy="144.501" r="1.222" fill="white"/>
<circle cx="147.862" cy="144.501" r="1.222" fill="white"/>
<circle cx="172.301" cy="144.501" r="1.222" fill="white"/>
<circle cx="196.742" cy="144.501" r="1.222" fill="white"/>
<circle cx="221.181" cy="144.501" r="1.222" fill="white"/>
<circle cx="245.621" cy="144.501" r="1.222" fill="white"/>
<circle cx="270.061" cy="144.501" r="1.222" fill="white"/>
<circle cx="294.501" cy="144.501" r="1.222" fill="white"/>
<circle cx="318.941" cy="144.501" r="1.222" fill="white"/>
<circle cx="343.381" cy="144.501" r="1.222" fill="white"/>
<circle cx="367.821" cy="144.501" r="1.222" fill="white"/>
<circle cx="392.261" cy="144.501" r="1.222" fill="white"/>
<circle cx="416.701" cy="144.501" r="1.222" fill="white"/>
<circle cx="441.141" cy="144.501" r="1.222" fill="white"/>
<circle cx="465.58" cy="144.501" r="1.222" fill="white"/>
<circle cx="490.021" cy="144.501" r="1.222" fill="white"/>
<circle cx="514.46" cy="144.501" r="1.222" fill="white"/>
<circle cx="538.9" cy="144.501" r="1.222" fill="white"/>
<circle cx="563.34" cy="144.501" r="1.222" fill="white"/>
<circle cx="587.78" cy="144.501" r="1.222" fill="white"/>
<circle cx="612.22" cy="144.501" r="1.222" fill="white"/>
<circle cx="636.659" cy="144.501" r="1.222" fill="white"/>
<circle cx="661.1" cy="144.501" r="1.222" fill="white"/>
<circle cx="685.539" cy="144.501" r="1.222" fill="white"/>
<circle cx="709.98" cy="144.501" r="1.222" fill="white"/>
<circle cx="734.419" cy="144.501" r="1.222" fill="white"/>
<circle cx="758.86" cy="144.501" r="1.222" fill="white"/>
<circle cx="783.299" cy="144.501" r="1.222" fill="white"/>
<circle cx="807.74" cy="144.501" r="1.222" fill="white"/>
<circle cx="832.179" cy="144.501" r="1.222" fill="white"/>
<circle cx="856.619" cy="144.501" r="1.222" fill="white"/>
<circle cx="881.059" cy="144.501" r="1.222" fill="white"/>
<circle cx="905.499" cy="144.501" r="1.222" fill="white"/>
<circle cx="929.939" cy="144.501" r="1.222" fill="white"/>
<circle cx="954.379" cy="144.501" r="1.222" fill="white"/>
<circle cx="978.819" cy="144.501" r="1.222" fill="white"/>
<circle cx="1003.26" cy="144.501" r="1.222" fill="white"/>
<circle cx="1027.7" cy="144.501" r="1.222" fill="white"/>
<circle cx="1052.14" cy="144.501" r="1.222" fill="white"/>
<circle cx="1076.58" cy="144.501" r="1.222" fill="white"/>
<circle cx="1101.02" cy="144.501" r="1.222" fill="white"/>
<circle cx="1125.46" cy="144.501" r="1.222" fill="white"/>
<circle cx="1149.9" cy="144.501" r="1.222" fill="white"/>
<circle cx="1174.34" cy="144.501" r="1.222" fill="white"/>
<circle cx="1198.78" cy="144.501" r="1.222" fill="white"/>
<circle cx="1.222" cy="168.941" r="1.222" fill="white"/>
<circle cx="25.6614" cy="168.941" r="1.222" fill="white"/>
<circle cx="50.1019" cy="168.941" r="1.222" fill="white"/>
<circle cx="74.5413" cy="168.941" r="1.222" fill="white"/>
<circle cx="98.9818" cy="168.941" r="1.222" fill="white"/>
<circle cx="123.421" cy="168.941" r="1.222" fill="white"/>
<circle cx="147.862" cy="168.941" r="1.222" fill="white"/>
<circle cx="172.301" cy="168.941" r="1.222" fill="white"/>
<circle cx="196.742" cy="168.941" r="1.222" fill="white"/>
<circle cx="221.181" cy="168.941" r="1.222" fill="white"/>
<circle cx="245.621" cy="168.941" r="1.222" fill="white"/>
<circle cx="270.061" cy="168.941" r="1.222" fill="white"/>
<circle cx="294.501" cy="168.941" r="1.222" fill="white"/>
<circle cx="318.941" cy="168.941" r="1.222" fill="white"/>
<circle cx="343.381" cy="168.941" r="1.222" fill="white"/>
<circle cx="367.821" cy="168.941" r="1.222" fill="white"/>
<circle cx="392.261" cy="168.941" r="1.222" fill="white"/>
<circle cx="416.701" cy="168.941" r="1.222" fill="white"/>
<circle cx="441.141" cy="168.941" r="1.222" fill="white"/>
<circle cx="465.58" cy="168.941" r="1.222" fill="white"/>
<circle cx="490.021" cy="168.941" r="1.222" fill="white"/>
<circle cx="514.46" cy="168.941" r="1.222" fill="white"/>
<circle cx="538.9" cy="168.941" r="1.222" fill="white"/>
<circle cx="563.34" cy="168.941" r="1.222" fill="white"/>
<circle cx="587.78" cy="168.941" r="1.222" fill="white"/>
<circle cx="612.22" cy="168.941" r="1.222" fill="white"/>
<circle cx="636.659" cy="168.941" r="1.222" fill="white"/>
<circle cx="661.1" cy="168.941" r="1.222" fill="white"/>
<circle cx="685.539" cy="168.941" r="1.222" fill="white"/>
<circle cx="709.98" cy="168.941" r="1.222" fill="white"/>
<circle cx="734.419" cy="168.941" r="1.222" fill="white"/>
<circle cx="758.86" cy="168.941" r="1.222" fill="white"/>
<circle cx="783.299" cy="168.941" r="1.222" fill="white"/>
<circle cx="807.74" cy="168.941" r="1.222" fill="white"/>
<circle cx="832.179" cy="168.941" r="1.222" fill="white"/>
<circle cx="856.619" cy="168.941" r="1.222" fill="white"/>
<circle cx="881.059" cy="168.941" r="1.222" fill="white"/>
<circle cx="905.499" cy="168.941" r="1.222" fill="white"/>
<circle cx="929.939" cy="168.941" r="1.222" fill="white"/>
<circle cx="954.379" cy="168.941" r="1.222" fill="white"/>
<circle cx="978.819" cy="168.941" r="1.222" fill="white"/>
<circle cx="1003.26" cy="168.941" r="1.222" fill="white"/>
<circle cx="1027.7" cy="168.941" r="1.222" fill="white"/>
<circle cx="1052.14" cy="168.941" r="1.222" fill="white"/>
<circle cx="1076.58" cy="168.941" r="1.222" fill="white"/>
<circle cx="1101.02" cy="168.941" r="1.222" fill="white"/>
<circle cx="1125.46" cy="168.941" r="1.222" fill="white"/>
<circle cx="1149.9" cy="168.941" r="1.222" fill="white"/>
<circle cx="1174.34" cy="168.941" r="1.222" fill="white"/>
<circle cx="1198.78" cy="168.941" r="1.222" fill="white"/>
<circle cx="1.222" cy="193.381" r="1.222" fill="white"/>
<circle cx="25.6614" cy="193.381" r="1.222" fill="white"/>
<circle cx="50.1019" cy="193.381" r="1.222" fill="white"/>
<circle cx="74.5413" cy="193.381" r="1.222" fill="white"/>
<circle cx="98.9818" cy="193.381" r="1.222" fill="white"/>
<circle cx="123.421" cy="193.381" r="1.222" fill="white"/>
<circle cx="147.862" cy="193.381" r="1.222" fill="white"/>
<circle cx="172.301" cy="193.381" r="1.222" fill="white"/>
<circle cx="196.742" cy="193.381" r="1.222" fill="white"/>
<circle cx="221.181" cy="193.381" r="1.222" fill="white"/>
<circle cx="245.621" cy="193.381" r="1.222" fill="white"/>
<circle cx="270.061" cy="193.381" r="1.222" fill="white"/>
<circle cx="294.501" cy="193.381" r="1.222" fill="white"/>
<circle cx="318.941" cy="193.381" r="1.222" fill="white"/>
<circle cx="343.381" cy="193.381" r="1.222" fill="white"/>
<circle cx="367.821" cy="193.381" r="1.222" fill="white"/>
<circle cx="392.261" cy="193.381" r="1.222" fill="white"/>
<circle cx="416.701" cy="193.381" r="1.222" fill="white"/>
<circle cx="441.141" cy="193.381" r="1.222" fill="white"/>
<circle cx="465.58" cy="193.381" r="1.222" fill="white"/>
<circle cx="490.021" cy="193.381" r="1.222" fill="white"/>
<circle cx="514.46" cy="193.381" r="1.222" fill="white"/>
<circle cx="538.9" cy="193.381" r="1.222" fill="white"/>
<circle cx="563.34" cy="193.381" r="1.222" fill="white"/>
<circle cx="587.78" cy="193.381" r="1.222" fill="white"/>
<circle cx="612.22" cy="193.381" r="1.222" fill="white"/>
<circle cx="636.659" cy="193.381" r="1.222" fill="white"/>
<circle cx="661.1" cy="193.381" r="1.222" fill="white"/>
<circle cx="685.539" cy="193.381" r="1.222" fill="white"/>
<circle cx="709.98" cy="193.381" r="1.222" fill="white"/>
<circle cx="734.419" cy="193.381" r="1.222" fill="white"/>
<circle cx="758.86" cy="193.381" r="1.222" fill="white"/>
<circle cx="783.299" cy="193.381" r="1.222" fill="white"/>
<circle cx="807.74" cy="193.381" r="1.222" fill="white"/>
<circle cx="832.179" cy="193.381" r="1.222" fill="white"/>
<circle cx="856.619" cy="193.381" r="1.222" fill="white"/>
<circle cx="881.059" cy="193.381" r="1.222" fill="white"/>
<circle cx="905.499" cy="193.381" r="1.222" fill="white"/>
<circle cx="929.939" cy="193.381" r="1.222" fill="white"/>
<circle cx="954.379" cy="193.381" r="1.222" fill="white"/>
<circle cx="978.819" cy="193.381" r="1.222" fill="white"/>
<circle cx="1003.26" cy="193.381" r="1.222" fill="white"/>
<circle cx="1027.7" cy="193.381" r="1.222" fill="white"/>
<circle cx="1052.14" cy="193.381" r="1.222" fill="white"/>
<circle cx="1076.58" cy="193.381" r="1.222" fill="white"/>
<circle cx="1101.02" cy="193.381" r="1.222" fill="white"/>
<circle cx="1125.46" cy="193.381" r="1.222" fill="white"/>
<circle cx="1149.9" cy="193.381" r="1.222" fill="white"/>
<circle cx="1174.34" cy="193.381" r="1.222" fill="white"/>
<circle cx="1198.78" cy="193.381" r="1.222" fill="white"/>
<circle cx="1.222" cy="217.821" r="1.222" fill="white"/>
<circle cx="25.6614" cy="217.821" r="1.222" fill="white"/>
<circle cx="50.1019" cy="217.821" r="1.222" fill="white"/>
<circle cx="74.5413" cy="217.821" r="1.222" fill="white"/>
<circle cx="98.9818" cy="217.821" r="1.222" fill="white"/>
<circle cx="123.421" cy="217.821" r="1.222" fill="white"/>
<circle cx="147.862" cy="217.821" r="1.222" fill="white"/>
<circle cx="172.301" cy="217.821" r="1.222" fill="white"/>
<circle cx="196.742" cy="217.821" r="1.222" fill="white"/>
<circle cx="221.181" cy="217.821" r="1.222" fill="white"/>
<circle cx="245.621" cy="217.821" r="1.222" fill="white"/>
<circle cx="270.061" cy="217.821" r="1.222" fill="white"/>
<circle cx="294.501" cy="217.821" r="1.222" fill="white"/>
<circle cx="318.941" cy="217.821" r="1.222" fill="white"/>
<circle cx="343.381" cy="217.821" r="1.222" fill="white"/>
<circle cx="367.821" cy="217.821" r="1.222" fill="white"/>
<circle cx="392.261" cy="217.821" r="1.222" fill="white"/>
<circle cx="416.701" cy="217.821" r="1.222" fill="white"/>
<circle cx="441.141" cy="217.821" r="1.222" fill="white"/>
<circle cx="465.58" cy="217.821" r="1.222" fill="white"/>
<circle cx="490.021" cy="217.821" r="1.222" fill="white"/>
<circle cx="514.46" cy="217.821" r="1.222" fill="white"/>
<circle cx="538.9" cy="217.821" r="1.222" fill="white"/>
<circle cx="563.34" cy="217.821" r="1.222" fill="white"/>
<circle cx="587.78" cy="217.821" r="1.222" fill="white"/>
<circle cx="612.22" cy="217.821" r="1.222" fill="white"/>
<circle cx="636.659" cy="217.821" r="1.222" fill="white"/>
<circle cx="661.1" cy="217.821" r="1.222" fill="white"/>
<circle cx="685.539" cy="217.821" r="1.222" fill="white"/>
<circle cx="709.98" cy="217.821" r="1.222" fill="white"/>
<circle cx="734.419" cy="217.821" r="1.222" fill="white"/>
<circle cx="758.86" cy="217.821" r="1.222" fill="white"/>
<circle cx="783.299" cy="217.821" r="1.222" fill="white"/>
<circle cx="807.74" cy="217.821" r="1.222" fill="white"/>
<circle cx="832.179" cy="217.821" r="1.222" fill="white"/>
<circle cx="856.619" cy="217.821" r="1.222" fill="white"/>
<circle cx="881.059" cy="217.821" r="1.222" fill="white"/>
<circle cx="905.499" cy="217.821" r="1.222" fill="white"/>
<circle cx="929.939" cy="217.821" r="1.222" fill="white"/>
<circle cx="954.379" cy="217.821" r="1.222" fill="white"/>
<circle cx="978.819" cy="217.821" r="1.222" fill="white"/>
<circle cx="1003.26" cy="217.821" r="1.222" fill="white"/>
<circle cx="1027.7" cy="217.821" r="1.222" fill="white"/>
<circle cx="1052.14" cy="217.821" r="1.222" fill="white"/>
<circle cx="1076.58" cy="217.821" r="1.222" fill="white"/>
<circle cx="1101.02" cy="217.821" r="1.222" fill="white"/>
<circle cx="1125.46" cy="217.821" r="1.222" fill="white"/>
<circle cx="1149.9" cy="217.821" r="1.222" fill="white"/>
<circle cx="1174.34" cy="217.821" r="1.222" fill="white"/>
<circle cx="1198.78" cy="217.821" r="1.222" fill="white"/>
<circle cx="1.222" cy="242.261" r="1.222" fill="white"/>
<circle cx="25.6614" cy="242.261" r="1.222" fill="white"/>
<circle cx="50.1019" cy="242.261" r="1.222" fill="white"/>
<circle cx="74.5413" cy="242.261" r="1.222" fill="white"/>
<circle cx="98.9818" cy="242.261" r="1.222" fill="white"/>
<circle cx="123.421" cy="242.261" r="1.222" fill="white"/>
<circle cx="147.862" cy="242.261" r="1.222" fill="white"/>
<circle cx="172.301" cy="242.261" r="1.222" fill="white"/>
<circle cx="196.742" cy="242.261" r="1.222" fill="white"/>
<circle cx="221.181" cy="242.261" r="1.222" fill="white"/>
<circle cx="245.621" cy="242.261" r="1.222" fill="white"/>
<circle cx="270.061" cy="242.261" r="1.222" fill="white"/>
<circle cx="294.501" cy="242.261" r="1.222" fill="white"/>
<circle cx="318.941" cy="242.261" r="1.222" fill="white"/>
<circle cx="343.381" cy="242.261" r="1.222" fill="white"/>
<circle cx="367.821" cy="242.261" r="1.222" fill="white"/>
<circle cx="392.261" cy="242.261" r="1.222" fill="white"/>
<circle cx="416.701" cy="242.261" r="1.222" fill="white"/>
<circle cx="441.141" cy="242.261" r="1.222" fill="white"/>
<circle cx="465.58" cy="242.261" r="1.222" fill="white"/>
<circle cx="490.021" cy="242.261" r="1.222" fill="white"/>
<circle cx="514.46" cy="242.261" r="1.222" fill="white"/>
<circle cx="538.9" cy="242.261" r="1.222" fill="white"/>
<circle cx="563.34" cy="242.261" r="1.222" fill="white"/>
<circle cx="587.78" cy="242.261" r="1.222" fill="white"/>
<circle cx="612.22" cy="242.261" r="1.222" fill="white"/>
<circle cx="636.659" cy="242.261" r="1.222" fill="white"/>
<circle cx="661.1" cy="242.261" r="1.222" fill="white"/>
<circle cx="685.539" cy="242.261" r="1.222" fill="white"/>
<circle cx="709.98" cy="242.261" r="1.222" fill="white"/>
<circle cx="734.419" cy="242.261" r="1.222" fill="white"/>
<circle cx="758.86" cy="242.261" r="1.222" fill="white"/>
<circle cx="783.299" cy="242.261" r="1.222" fill="white"/>
<circle cx="807.74" cy="242.261" r="1.222" fill="white"/>
<circle cx="832.179" cy="242.261" r="1.222" fill="white"/>
<circle cx="856.619" cy="242.261" r="1.222" fill="white"/>
<circle cx="881.059" cy="242.261" r="1.222" fill="white"/>
<circle cx="905.499" cy="242.261" r="1.222" fill="white"/>
<circle cx="929.939" cy="242.261" r="1.222" fill="white"/>
<circle cx="954.379" cy="242.261" r="1.222" fill="white"/>
<circle cx="978.819" cy="242.261" r="1.222" fill="white"/>
<circle cx="1003.26" cy="242.261" r="1.222" fill="white"/>
<circle cx="1027.7" cy="242.261" r="1.222" fill="white"/>
<circle cx="1052.14" cy="242.261" r="1.222" fill="white"/>
<circle cx="1076.58" cy="242.261" r="1.222" fill="white"/>
<circle cx="1101.02" cy="242.261" r="1.222" fill="white"/>
<circle cx="1125.46" cy="242.261" r="1.222" fill="white"/>
<circle cx="1149.9" cy="242.261" r="1.222" fill="white"/>
<circle cx="1174.34" cy="242.261" r="1.222" fill="white"/>
<circle cx="1198.78" cy="242.261" r="1.222" fill="white"/>
<circle cx="1.222" cy="266.701" r="1.222" fill="white"/>
<circle cx="25.6614" cy="266.701" r="1.222" fill="white"/>
<circle cx="50.1019" cy="266.701" r="1.222" fill="white"/>
<circle cx="74.5413" cy="266.701" r="1.222" fill="white"/>
<circle cx="98.9818" cy="266.701" r="1.222" fill="white"/>
<circle cx="123.421" cy="266.701" r="1.222" fill="white"/>
<circle cx="147.862" cy="266.701" r="1.222" fill="white"/>
<circle cx="172.301" cy="266.701" r="1.222" fill="white"/>
<circle cx="196.742" cy="266.701" r="1.222" fill="white"/>
<circle cx="221.181" cy="266.701" r="1.222" fill="white"/>
<circle cx="245.621" cy="266.701" r="1.222" fill="white"/>
<circle cx="270.061" cy="266.701" r="1.222" fill="white"/>
<circle cx="294.501" cy="266.701" r="1.222" fill="white"/>
<circle cx="318.941" cy="266.701" r="1.222" fill="white"/>
<circle cx="343.381" cy="266.701" r="1.222" fill="white"/>
<circle cx="367.821" cy="266.701" r="1.222" fill="white"/>
<circle cx="392.261" cy="266.701" r="1.222" fill="white"/>
<circle cx="416.701" cy="266.701" r="1.222" fill="white"/>
<circle cx="441.141" cy="266.701" r="1.222" fill="white"/>
<circle cx="465.58" cy="266.701" r="1.222" fill="white"/>
<circle cx="490.021" cy="266.701" r="1.222" fill="white"/>
<circle cx="514.46" cy="266.701" r="1.222" fill="white"/>
<circle cx="538.9" cy="266.701" r="1.222" fill="white"/>
<circle cx="563.34" cy="266.701" r="1.222" fill="white"/>
<circle cx="587.78" cy="266.701" r="1.222" fill="white"/>
<circle cx="612.22" cy="266.701" r="1.222" fill="white"/>
<circle cx="636.659" cy="266.701" r="1.222" fill="white"/>
<circle cx="661.1" cy="266.701" r="1.222" fill="white"/>
<circle cx="685.539" cy="266.701" r="1.222" fill="white"/>
<circle cx="709.98" cy="266.701" r="1.222" fill="white"/>
<circle cx="734.419" cy="266.701" r="1.222" fill="white"/>
<circle cx="758.86" cy="266.701" r="1.222" fill="white"/>
<circle cx="783.299" cy="266.701" r="1.222" fill="white"/>
<circle cx="807.74" cy="266.701" r="1.222" fill="white"/>
<circle cx="832.179" cy="266.701" r="1.222" fill="white"/>
<circle cx="856.619" cy="266.701" r="1.222" fill="white"/>
<circle cx="881.059" cy="266.701" r="1.222" fill="white"/>
<circle cx="905.499" cy="266.701" r="1.222" fill="white"/>
<circle cx="929.939" cy="266.701" r="1.222" fill="white"/>
<circle cx="954.379" cy="266.701" r="1.222" fill="white"/>
<circle cx="978.819" cy="266.701" r="1.222" fill="white"/>
<circle cx="1003.26" cy="266.701" r="1.222" fill="white"/>
<circle cx="1027.7" cy="266.701" r="1.222" fill="white"/>
<circle cx="1052.14" cy="266.701" r="1.222" fill="white"/>
<circle cx="1076.58" cy="266.701" r="1.222" fill="white"/>
<circle cx="1101.02" cy="266.701" r="1.222" fill="white"/>
<circle cx="1125.46" cy="266.701" r="1.222" fill="white"/>
<circle cx="1149.9" cy="266.701" r="1.222" fill="white"/>
<circle cx="1174.34" cy="266.701" r="1.222" fill="white"/>
<circle cx="1198.78" cy="266.701" r="1.222" fill="white"/>
<circle cx="1.222" cy="291.14" r="1.222" fill="white"/>
<circle cx="25.6614" cy="291.14" r="1.222" fill="white"/>
<circle cx="50.1019" cy="291.14" r="1.222" fill="white"/>
<circle cx="74.5413" cy="291.14" r="1.222" fill="white"/>
<circle cx="98.9818" cy="291.14" r="1.222" fill="white"/>
<circle cx="123.421" cy="291.14" r="1.222" fill="white"/>
<circle cx="147.862" cy="291.14" r="1.222" fill="white"/>
<circle cx="172.301" cy="291.14" r="1.222" fill="white"/>
<circle cx="196.742" cy="291.14" r="1.222" fill="white"/>
<circle cx="221.181" cy="291.14" r="1.222" fill="white"/>
<circle cx="245.621" cy="291.14" r="1.222" fill="white"/>
<circle cx="270.061" cy="291.14" r="1.222" fill="white"/>
<circle cx="294.501" cy="291.14" r="1.222" fill="white"/>
<circle cx="318.941" cy="291.14" r="1.222" fill="white"/>
<circle cx="343.381" cy="291.14" r="1.222" fill="white"/>
<circle cx="367.821" cy="291.14" r="1.222" fill="white"/>
<circle cx="392.261" cy="291.14" r="1.222" fill="white"/>
<circle cx="416.701" cy="291.14" r="1.222" fill="white"/>
<circle cx="441.141" cy="291.14" r="1.222" fill="white"/>
<circle cx="465.58" cy="291.14" r="1.222" fill="white"/>
<circle cx="490.021" cy="291.14" r="1.222" fill="white"/>
<circle cx="514.46" cy="291.14" r="1.222" fill="white"/>
<circle cx="538.9" cy="291.14" r="1.222" fill="white"/>
<circle cx="563.34" cy="291.14" r="1.222" fill="white"/>
<circle cx="587.78" cy="291.14" r="1.222" fill="white"/>
<circle cx="612.22" cy="291.14" r="1.222" fill="white"/>
<circle cx="636.659" cy="291.14" r="1.222" fill="white"/>
<circle cx="661.1" cy="291.14" r="1.222" fill="white"/>
<circle cx="685.539" cy="291.14" r="1.222" fill="white"/>
<circle cx="709.98" cy="291.14" r="1.222" fill="white"/>
<circle cx="734.419" cy="291.14" r="1.222" fill="white"/>
<circle cx="758.86" cy="291.14" r="1.222" fill="white"/>
<circle cx="783.299" cy="291.14" r="1.222" fill="white"/>
<circle cx="807.74" cy="291.14" r="1.222" fill="white"/>
<circle cx="832.179" cy="291.14" r="1.222" fill="white"/>
<circle cx="856.619" cy="291.14" r="1.222" fill="white"/>
<circle cx="881.059" cy="291.14" r="1.222" fill="white"/>
<circle cx="905.499" cy="291.14" r="1.222" fill="white"/>
<circle cx="929.939" cy="291.14" r="1.222" fill="white"/>
<circle cx="954.379" cy="291.14" r="1.222" fill="white"/>
<circle cx="978.819" cy="291.14" r="1.222" fill="white"/>
<circle cx="1003.26" cy="291.14" r="1.222" fill="white"/>
<circle cx="1027.7" cy="291.14" r="1.222" fill="white"/>
<circle cx="1052.14" cy="291.14" r="1.222" fill="white"/>
<circle cx="1076.58" cy="291.14" r="1.222" fill="white"/>
<circle cx="1101.02" cy="291.14" r="1.222" fill="white"/>
<circle cx="1125.46" cy="291.14" r="1.222" fill="white"/>
<circle cx="1149.9" cy="291.14" r="1.222" fill="white"/>
<circle cx="1174.34" cy="291.14" r="1.222" fill="white"/>
<circle cx="1198.78" cy="291.14" r="1.222" fill="white"/>
<circle cx="1.222" cy="315.58" r="1.222" fill="white"/>
<circle cx="25.6614" cy="315.58" r="1.222" fill="white"/>
<circle cx="50.1019" cy="315.58" r="1.222" fill="white"/>
<circle cx="74.5413" cy="315.58" r="1.222" fill="white"/>
<circle cx="98.9818" cy="315.58" r="1.222" fill="white"/>
<circle cx="123.421" cy="315.58" r="1.222" fill="white"/>
<circle cx="147.862" cy="315.58" r="1.222" fill="white"/>
<circle cx="172.301" cy="315.58" r="1.222" fill="white"/>
<circle cx="196.742" cy="315.58" r="1.222" fill="white"/>
<circle cx="221.181" cy="315.58" r="1.222" fill="white"/>
<circle cx="245.621" cy="315.58" r="1.222" fill="white"/>
<circle cx="270.061" cy="315.58" r="1.222" fill="white"/>
<circle cx="294.501" cy="315.58" r="1.222" fill="white"/>
<circle cx="318.941" cy="315.58" r="1.222" fill="white"/>
<circle cx="343.381" cy="315.58" r="1.222" fill="white"/>
<circle cx="367.821" cy="315.58" r="1.222" fill="white"/>
<circle cx="392.261" cy="315.58" r="1.222" fill="white"/>
<circle cx="416.701" cy="315.58" r="1.222" fill="white"/>
<circle cx="441.141" cy="315.58" r="1.222" fill="white"/>
<circle cx="465.58" cy="315.58" r="1.222" fill="white"/>
<circle cx="490.021" cy="315.58" r="1.222" fill="white"/>
<circle cx="514.46" cy="315.58" r="1.222" fill="white"/>
<circle cx="538.9" cy="315.58" r="1.222" fill="white"/>
<circle cx="563.34" cy="315.58" r="1.222" fill="white"/>
<circle cx="587.78" cy="315.58" r="1.222" fill="white"/>
<circle cx="612.22" cy="315.58" r="1.222" fill="white"/>
<circle cx="636.659" cy="315.58" r="1.222" fill="white"/>
<circle cx="661.1" cy="315.58" r="1.222" fill="white"/>
<circle cx="685.539" cy="315.58" r="1.222" fill="white"/>
<circle cx="709.98" cy="315.58" r="1.222" fill="white"/>
<circle cx="734.419" cy="315.58" r="1.222" fill="white"/>
<circle cx="758.86" cy="315.58" r="1.222" fill="white"/>
<circle cx="783.299" cy="315.58" r="1.222" fill="white"/>
<circle cx="807.74" cy="315.58" r="1.222" fill="white"/>
<circle cx="832.179" cy="315.58" r="1.222" fill="white"/>
<circle cx="856.619" cy="315.58" r="1.222" fill="white"/>
<circle cx="881.059" cy="315.58" r="1.222" fill="white"/>
<circle cx="905.499" cy="315.58" r="1.222" fill="white"/>
<circle cx="929.939" cy="315.58" r="1.222" fill="white"/>
<circle cx="954.379" cy="315.58" r="1.222" fill="white"/>
<circle cx="978.819" cy="315.58" r="1.222" fill="white"/>
<circle cx="1003.26" cy="315.58" r="1.222" fill="white"/>
<circle cx="1027.7" cy="315.58" r="1.222" fill="white"/>
<circle cx="1052.14" cy="315.58" r="1.222" fill="white"/>
<circle cx="1076.58" cy="315.58" r="1.222" fill="white"/>
<circle cx="1101.02" cy="315.58" r="1.222" fill="white"/>
<circle cx="1125.46" cy="315.58" r="1.222" fill="white"/>
<circle cx="1149.9" cy="315.58" r="1.222" fill="white"/>
<circle cx="1174.34" cy="315.58" r="1.222" fill="white"/>
<circle cx="1198.78" cy="315.58" r="1.222" fill="white"/>
<circle cx="1.222" cy="340.02" r="1.222" fill="white"/>
<circle cx="25.6614" cy="340.02" r="1.222" fill="white"/>
<circle cx="50.1019" cy="340.02" r="1.222" fill="white"/>
<circle cx="74.5413" cy="340.02" r="1.222" fill="white"/>
<circle cx="98.9818" cy="340.02" r="1.222" fill="white"/>
<circle cx="123.421" cy="340.02" r="1.222" fill="white"/>
<circle cx="147.862" cy="340.02" r="1.222" fill="white"/>
<circle cx="172.301" cy="340.02" r="1.222" fill="white"/>
<circle cx="196.742" cy="340.02" r="1.222" fill="white"/>
<circle cx="221.181" cy="340.02" r="1.222" fill="white"/>
<circle cx="245.621" cy="340.02" r="1.222" fill="white"/>
<circle cx="270.061" cy="340.02" r="1.222" fill="white"/>
<circle cx="294.501" cy="340.02" r="1.222" fill="white"/>
<circle cx="318.941" cy="340.02" r="1.222" fill="white"/>
<circle cx="343.381" cy="340.02" r="1.222" fill="white"/>
<circle cx="367.821" cy="340.02" r="1.222" fill="white"/>
<circle cx="392.261" cy="340.02" r="1.222" fill="white"/>
<circle cx="416.701" cy="340.02" r="1.222" fill="white"/>
<circle cx="441.141" cy="340.02" r="1.222" fill="white"/>
<circle cx="465.58" cy="340.02" r="1.222" fill="white"/>
<circle cx="490.021" cy="340.02" r="1.222" fill="white"/>
<circle cx="514.46" cy="340.02" r="1.222" fill="white"/>
<circle cx="538.9" cy="340.02" r="1.222" fill="white"/>
<circle cx="563.34" cy="340.02" r="1.222" fill="white"/>
<circle cx="587.78" cy="340.02" r="1.222" fill="white"/>
<circle cx="612.22" cy="340.02" r="1.222" fill="white"/>
<circle cx="636.659" cy="340.02" r="1.222" fill="white"/>
<circle cx="661.1" cy="340.02" r="1.222" fill="white"/>
<circle cx="685.539" cy="340.02" r="1.222" fill="white"/>
<circle cx="709.98" cy="340.02" r="1.222" fill="white"/>
<circle cx="734.419" cy="340.02" r="1.222" fill="white"/>
<circle cx="758.86" cy="340.02" r="1.222" fill="white"/>
<circle cx="783.299" cy="340.02" r="1.222" fill="white"/>
<circle cx="807.74" cy="340.02" r="1.222" fill="white"/>
<circle cx="832.179" cy="340.02" r="1.222" fill="white"/>
<circle cx="856.619" cy="340.02" r="1.222" fill="white"/>
<circle cx="881.059" cy="340.02" r="1.222" fill="white"/>
<circle cx="905.499" cy="340.02" r="1.222" fill="white"/>
<circle cx="929.939" cy="340.02" r="1.222" fill="white"/>
<circle cx="954.379" cy="340.02" r="1.222" fill="white"/>
<circle cx="978.819" cy="340.02" r="1.222" fill="white"/>
<circle cx="1003.26" cy="340.02" r="1.222" fill="white"/>
<circle cx="1027.7" cy="340.02" r="1.222" fill="white"/>
<circle cx="1052.14" cy="340.02" r="1.222" fill="white"/>
<circle cx="1076.58" cy="340.02" r="1.222" fill="white"/>
<circle cx="1101.02" cy="340.02" r="1.222" fill="white"/>
<circle cx="1125.46" cy="340.02" r="1.222" fill="white"/>
<circle cx="1149.9" cy="340.02" r="1.222" fill="white"/>
<circle cx="1174.34" cy="340.02" r="1.222" fill="white"/>
<circle cx="1198.78" cy="340.02" r="1.222" fill="white"/>
<circle cx="1.222" cy="364.46" r="1.222" fill="white"/>
<circle cx="25.6614" cy="364.46" r="1.222" fill="white"/>
<circle cx="50.1019" cy="364.46" r="1.222" fill="white"/>
<circle cx="74.5413" cy="364.46" r="1.222" fill="white"/>
<circle cx="98.9818" cy="364.46" r="1.222" fill="white"/>
<circle cx="123.421" cy="364.46" r="1.222" fill="white"/>
<circle cx="147.862" cy="364.46" r="1.222" fill="white"/>
<circle cx="172.301" cy="364.46" r="1.222" fill="white"/>
<circle cx="196.742" cy="364.46" r="1.222" fill="white"/>
<circle cx="221.181" cy="364.46" r="1.222" fill="white"/>
<circle cx="245.621" cy="364.46" r="1.222" fill="white"/>
<circle cx="270.061" cy="364.46" r="1.222" fill="white"/>
<circle cx="294.501" cy="364.46" r="1.222" fill="white"/>
<circle cx="318.941" cy="364.46" r="1.222" fill="white"/>
<circle cx="343.381" cy="364.46" r="1.222" fill="white"/>
<circle cx="367.821" cy="364.46" r="1.222" fill="white"/>
<circle cx="392.261" cy="364.46" r="1.222" fill="white"/>
<circle cx="416.701" cy="364.46" r="1.222" fill="white"/>
<circle cx="441.141" cy="364.46" r="1.222" fill="white"/>
<circle cx="465.58" cy="364.46" r="1.222" fill="white"/>
<circle cx="490.021" cy="364.46" r="1.222" fill="white"/>
<circle cx="514.46" cy="364.46" r="1.222" fill="white"/>
<circle cx="538.9" cy="364.46" r="1.222" fill="white"/>
<circle cx="563.34" cy="364.46" r="1.222" fill="white"/>
<circle cx="587.78" cy="364.46" r="1.222" fill="white"/>
<circle cx="612.22" cy="364.46" r="1.222" fill="white"/>
<circle cx="636.659" cy="364.46" r="1.222" fill="white"/>
<circle cx="661.1" cy="364.46" r="1.222" fill="white"/>
<circle cx="685.539" cy="364.46" r="1.222" fill="white"/>
<circle cx="709.98" cy="364.46" r="1.222" fill="white"/>
<circle cx="734.419" cy="364.46" r="1.222" fill="white"/>
<circle cx="758.86" cy="364.46" r="1.222" fill="white"/>
<circle cx="783.299" cy="364.46" r="1.222" fill="white"/>
<circle cx="807.74" cy="364.46" r="1.222" fill="white"/>
<circle cx="832.179" cy="364.46" r="1.222" fill="white"/>
<circle cx="856.619" cy="364.46" r="1.222" fill="white"/>
<circle cx="881.059" cy="364.46" r="1.222" fill="white"/>
<circle cx="905.499" cy="364.46" r="1.222" fill="white"/>
<circle cx="929.939" cy="364.46" r="1.222" fill="white"/>
<circle cx="954.379" cy="364.46" r="1.222" fill="white"/>
<circle cx="978.819" cy="364.46" r="1.222" fill="white"/>
<circle cx="1003.26" cy="364.46" r="1.222" fill="white"/>
<circle cx="1027.7" cy="364.46" r="1.222" fill="white"/>
<circle cx="1052.14" cy="364.46" r="1.222" fill="white"/>
<circle cx="1076.58" cy="364.46" r="1.222" fill="white"/>
<circle cx="1101.02" cy="364.46" r="1.222" fill="white"/>
<circle cx="1125.46" cy="364.46" r="1.222" fill="white"/>
<circle cx="1149.9" cy="364.46" r="1.222" fill="white"/>
<circle cx="1174.34" cy="364.46" r="1.222" fill="white"/>
<circle cx="1198.78" cy="364.46" r="1.222" fill="white"/>
<circle cx="1.222" cy="388.9" r="1.222" fill="white"/>
<circle cx="25.6614" cy="388.9" r="1.222" fill="white"/>
<circle cx="50.1019" cy="388.9" r="1.222" fill="white"/>
<circle cx="74.5413" cy="388.9" r="1.222" fill="white"/>
<circle cx="98.9818" cy="388.9" r="1.222" fill="white"/>
<circle cx="123.421" cy="388.9" r="1.222" fill="white"/>
<circle cx="147.862" cy="388.9" r="1.222" fill="white"/>
<circle cx="172.301" cy="388.9" r="1.222" fill="white"/>
<circle cx="196.742" cy="388.9" r="1.222" fill="white"/>
<circle cx="221.181" cy="388.9" r="1.222" fill="white"/>
<circle cx="245.621" cy="388.9" r="1.222" fill="white"/>
<circle cx="270.061" cy="388.9" r="1.222" fill="white"/>
<circle cx="294.501" cy="388.9" r="1.222" fill="white"/>
<circle cx="318.941" cy="388.9" r="1.222" fill="white"/>
<circle cx="343.381" cy="388.9" r="1.222" fill="white"/>
<circle cx="367.821" cy="388.9" r="1.222" fill="white"/>
<circle cx="392.261" cy="388.9" r="1.222" fill="white"/>
<circle cx="416.701" cy="388.9" r="1.222" fill="white"/>
<circle cx="441.141" cy="388.9" r="1.222" fill="white"/>
<circle cx="465.58" cy="388.9" r="1.222" fill="white"/>
<circle cx="490.021" cy="388.9" r="1.222" fill="white"/>
<circle cx="514.46" cy="388.9" r="1.222" fill="white"/>
<circle cx="538.9" cy="388.9" r="1.222" fill="white"/>
<circle cx="563.34" cy="388.9" r="1.222" fill="white"/>
<circle cx="587.78" cy="388.9" r="1.222" fill="white"/>
<circle cx="612.22" cy="388.9" r="1.222" fill="white"/>
<circle cx="636.659" cy="388.9" r="1.222" fill="white"/>
<circle cx="661.1" cy="388.9" r="1.222" fill="white"/>
<circle cx="685.539" cy="388.9" r="1.222" fill="white"/>
<circle cx="709.98" cy="388.9" r="1.222" fill="white"/>
<circle cx="734.419" cy="388.9" r="1.222" fill="white"/>
<circle cx="758.86" cy="388.9" r="1.222" fill="white"/>
<circle cx="783.299" cy="388.9" r="1.222" fill="white"/>
<circle cx="807.74" cy="388.9" r="1.222" fill="white"/>
<circle cx="832.179" cy="388.9" r="1.222" fill="white"/>
<circle cx="856.619" cy="388.9" r="1.222" fill="white"/>
<circle cx="881.059" cy="388.9" r="1.222" fill="white"/>
<circle cx="905.499" cy="388.9" r="1.222" fill="white"/>
<circle cx="929.939" cy="388.9" r="1.222" fill="white"/>
<circle cx="954.379" cy="388.9" r="1.222" fill="white"/>
<circle cx="978.819" cy="388.9" r="1.222" fill="white"/>
<circle cx="1003.26" cy="388.9" r="1.222" fill="white"/>
<circle cx="1027.7" cy="388.9" r="1.222" fill="white"/>
<circle cx="1052.14" cy="388.9" r="1.222" fill="white"/>
<circle cx="1076.58" cy="388.9" r="1.222" fill="white"/>
<circle cx="1101.02" cy="388.9" r="1.222" fill="white"/>
<circle cx="1125.46" cy="388.9" r="1.222" fill="white"/>
<circle cx="1149.9" cy="388.9" r="1.222" fill="white"/>
<circle cx="1174.34" cy="388.9" r="1.222" fill="white"/>
<circle cx="1198.78" cy="388.9" r="1.222" fill="white"/>
<circle cx="1.222" cy="413.34" r="1.222" fill="white"/>
<circle cx="25.6614" cy="413.34" r="1.222" fill="white"/>
<circle cx="50.1019" cy="413.34" r="1.222" fill="white"/>
<circle cx="74.5413" cy="413.34" r="1.222" fill="white"/>
<circle cx="98.9818" cy="413.34" r="1.222" fill="white"/>
<circle cx="123.421" cy="413.34" r="1.222" fill="white"/>
<circle cx="147.862" cy="413.34" r="1.222" fill="white"/>
<circle cx="172.301" cy="413.34" r="1.222" fill="white"/>
<circle cx="196.742" cy="413.34" r="1.222" fill="white"/>
<circle cx="221.181" cy="413.34" r="1.222" fill="white"/>
<circle cx="245.621" cy="413.34" r="1.222" fill="white"/>
<circle cx="270.061" cy="413.34" r="1.222" fill="white"/>
<circle cx="294.501" cy="413.34" r="1.222" fill="white"/>
<circle cx="318.941" cy="413.34" r="1.222" fill="white"/>
<circle cx="343.381" cy="413.34" r="1.222" fill="white"/>
<circle cx="367.821" cy="413.34" r="1.222" fill="white"/>
<circle cx="392.261" cy="413.34" r="1.222" fill="white"/>
<circle cx="416.701" cy="413.34" r="1.222" fill="white"/>
<circle cx="441.141" cy="413.34" r="1.222" fill="white"/>
<circle cx="465.58" cy="413.34" r="1.222" fill="white"/>
<circle cx="490.021" cy="413.34" r="1.222" fill="white"/>
<circle cx="514.46" cy="413.34" r="1.222" fill="white"/>
<circle cx="538.9" cy="413.34" r="1.222" fill="white"/>
<circle cx="563.34" cy="413.34" r="1.222" fill="white"/>
<circle cx="587.78" cy="413.34" r="1.222" fill="white"/>
<circle cx="612.22" cy="413.34" r="1.222" fill="white"/>
<circle cx="636.659" cy="413.34" r="1.222" fill="white"/>
<circle cx="661.1" cy="413.34" r="1.222" fill="white"/>
<circle cx="685.539" cy="413.34" r="1.222" fill="white"/>
<circle cx="709.98" cy="413.34" r="1.222" fill="white"/>
<circle cx="734.419" cy="413.34" r="1.222" fill="white"/>
<circle cx="758.86" cy="413.34" r="1.222" fill="white"/>
<circle cx="783.299" cy="413.34" r="1.222" fill="white"/>
<circle cx="807.74" cy="413.34" r="1.222" fill="white"/>
<circle cx="832.179" cy="413.34" r="1.222" fill="white"/>
<circle cx="856.619" cy="413.34" r="1.222" fill="white"/>
<circle cx="881.059" cy="413.34" r="1.222" fill="white"/>
<circle cx="905.499" cy="413.34" r="1.222" fill="white"/>
<circle cx="929.939" cy="413.34" r="1.222" fill="white"/>
<circle cx="954.379" cy="413.34" r="1.222" fill="white"/>
<circle cx="978.819" cy="413.34" r="1.222" fill="white"/>
<circle cx="1003.26" cy="413.34" r="1.222" fill="white"/>
<circle cx="1027.7" cy="413.34" r="1.222" fill="white"/>
<circle cx="1052.14" cy="413.34" r="1.222" fill="white"/>
<circle cx="1076.58" cy="413.34" r="1.222" fill="white"/>
<circle cx="1101.02" cy="413.34" r="1.222" fill="white"/>
<circle cx="1125.46" cy="413.34" r="1.222" fill="white"/>
<circle cx="1149.9" cy="413.34" r="1.222" fill="white"/>
<circle cx="1174.34" cy="413.34" r="1.222" fill="white"/>
<circle cx="1198.78" cy="413.34" r="1.222" fill="white"/>
<circle cx="1.222" cy="437.78" r="1.222" fill="white"/>
<circle cx="25.6614" cy="437.78" r="1.222" fill="white"/>
<circle cx="50.1019" cy="437.78" r="1.222" fill="white"/>
<circle cx="74.5413" cy="437.78" r="1.222" fill="white"/>
<circle cx="98.9818" cy="437.78" r="1.222" fill="white"/>
<circle cx="123.421" cy="437.78" r="1.222" fill="white"/>
<circle cx="147.862" cy="437.78" r="1.222" fill="white"/>
<circle cx="172.301" cy="437.78" r="1.222" fill="white"/>
<circle cx="196.742" cy="437.78" r="1.222" fill="white"/>
<circle cx="221.181" cy="437.78" r="1.222" fill="white"/>
<circle cx="245.621" cy="437.78" r="1.222" fill="white"/>
<circle cx="270.061" cy="437.78" r="1.222" fill="white"/>
<circle cx="294.501" cy="437.78" r="1.222" fill="white"/>
<circle cx="318.941" cy="437.78" r="1.222" fill="white"/>
<circle cx="343.381" cy="437.78" r="1.222" fill="white"/>
<circle cx="367.821" cy="437.78" r="1.222" fill="white"/>
<circle cx="392.261" cy="437.78" r="1.222" fill="white"/>
<circle cx="416.701" cy="437.78" r="1.222" fill="white"/>
<circle cx="441.141" cy="437.78" r="1.222" fill="white"/>
<circle cx="465.58" cy="437.78" r="1.222" fill="white"/>
<circle cx="490.021" cy="437.78" r="1.222" fill="white"/>
<circle cx="514.46" cy="437.78" r="1.222" fill="white"/>
<circle cx="538.9" cy="437.78" r="1.222" fill="white"/>
<circle cx="563.34" cy="437.78" r="1.222" fill="white"/>
<circle cx="587.78" cy="437.78" r="1.222" fill="white"/>
<circle cx="612.22" cy="437.78" r="1.222" fill="white"/>
<circle cx="636.659" cy="437.78" r="1.222" fill="white"/>
<circle cx="661.1" cy="437.78" r="1.222" fill="white"/>
<circle cx="685.539" cy="437.78" r="1.222" fill="white"/>
<circle cx="709.98" cy="437.78" r="1.222" fill="white"/>
<circle cx="734.419" cy="437.78" r="1.222" fill="white"/>
<circle cx="758.86" cy="437.78" r="1.222" fill="white"/>
<circle cx="783.299" cy="437.78" r="1.222" fill="white"/>
<circle cx="807.74" cy="437.78" r="1.222" fill="white"/>
<circle cx="832.179" cy="437.78" r="1.222" fill="white"/>
<circle cx="856.619" cy="437.78" r="1.222" fill="white"/>
<circle cx="881.059" cy="437.78" r="1.222" fill="white"/>
<circle cx="905.499" cy="437.78" r="1.222" fill="white"/>
<circle cx="929.939" cy="437.78" r="1.222" fill="white"/>
<circle cx="954.379" cy="437.78" r="1.222" fill="white"/>
<circle cx="978.819" cy="437.78" r="1.222" fill="white"/>
<circle cx="1003.26" cy="437.78" r="1.222" fill="white"/>
<circle cx="1027.7" cy="437.78" r="1.222" fill="white"/>
<circle cx="1052.14" cy="437.78" r="1.222" fill="white"/>
<circle cx="1076.58" cy="437.78" r="1.222" fill="white"/>
<circle cx="1101.02" cy="437.78" r="1.222" fill="white"/>
<circle cx="1125.46" cy="437.78" r="1.222" fill="white"/>
<circle cx="1149.9" cy="437.78" r="1.222" fill="white"/>
<circle cx="1174.34" cy="437.78" r="1.222" fill="white"/>
<circle cx="1198.78" cy="437.78" r="1.222" fill="white"/>
<circle cx="1.222" cy="462.22" r="1.222" fill="white"/>
<circle cx="25.6614" cy="462.22" r="1.222" fill="white"/>
<circle cx="50.1019" cy="462.22" r="1.222" fill="white"/>
<circle cx="74.5413" cy="462.22" r="1.222" fill="white"/>
<circle cx="98.9818" cy="462.22" r="1.222" fill="white"/>
<circle cx="123.421" cy="462.22" r="1.222" fill="white"/>
<circle cx="147.862" cy="462.22" r="1.222" fill="white"/>
<circle cx="172.301" cy="462.22" r="1.222" fill="white"/>
<circle cx="196.742" cy="462.22" r="1.222" fill="white"/>
<circle cx="221.181" cy="462.22" r="1.222" fill="white"/>
<circle cx="245.621" cy="462.22" r="1.222" fill="white"/>
<circle cx="270.061" cy="462.22" r="1.222" fill="white"/>
<circle cx="294.501" cy="462.22" r="1.222" fill="white"/>
<circle cx="318.941" cy="462.22" r="1.222" fill="white"/>
<circle cx="343.381" cy="462.22" r="1.222" fill="white"/>
<circle cx="367.821" cy="462.22" r="1.222" fill="white"/>
<circle cx="392.261" cy="462.22" r="1.222" fill="white"/>
<circle cx="416.701" cy="462.22" r="1.222" fill="white"/>
<circle cx="441.141" cy="462.22" r="1.222" fill="white"/>
<circle cx="465.58" cy="462.22" r="1.222" fill="white"/>
<circle cx="490.021" cy="462.22" r="1.222" fill="white"/>
<circle cx="514.46" cy="462.22" r="1.222" fill="white"/>
<circle cx="538.9" cy="462.22" r="1.222" fill="white"/>
<circle cx="563.34" cy="462.22" r="1.222" fill="white"/>
<circle cx="587.78" cy="462.22" r="1.222" fill="white"/>
<circle cx="612.22" cy="462.22" r="1.222" fill="white"/>
<circle cx="636.659" cy="462.22" r="1.222" fill="white"/>
<circle cx="661.1" cy="462.22" r="1.222" fill="white"/>
<circle cx="685.539" cy="462.22" r="1.222" fill="white"/>
<circle cx="709.98" cy="462.22" r="1.222" fill="white"/>
<circle cx="734.419" cy="462.22" r="1.222" fill="white"/>
<circle cx="758.86" cy="462.22" r="1.222" fill="white"/>
<circle cx="783.299" cy="462.22" r="1.222" fill="white"/>
<circle cx="807.74" cy="462.22" r="1.222" fill="white"/>
<circle cx="832.179" cy="462.22" r="1.222" fill="white"/>
<circle cx="856.619" cy="462.22" r="1.222" fill="white"/>
<circle cx="881.059" cy="462.22" r="1.222" fill="white"/>
<circle cx="905.499" cy="462.22" r="1.222" fill="white"/>
<circle cx="929.939" cy="462.22" r="1.222" fill="white"/>
<circle cx="954.379" cy="462.22" r="1.222" fill="white"/>
<circle cx="978.819" cy="462.22" r="1.222" fill="white"/>
<circle cx="1003.26" cy="462.22" r="1.222" fill="white"/>
<circle cx="1027.7" cy="462.22" r="1.222" fill="white"/>
<circle cx="1052.14" cy="462.22" r="1.222" fill="white"/>
<circle cx="1076.58" cy="462.22" r="1.222" fill="white"/>
<circle cx="1101.02" cy="462.22" r="1.222" fill="white"/>
<circle cx="1125.46" cy="462.22" r="1.222" fill="white"/>
<circle cx="1149.9" cy="462.22" r="1.222" fill="white"/>
<circle cx="1174.34" cy="462.22" r="1.222" fill="white"/>
<circle cx="1198.78" cy="462.22" r="1.222" fill="white"/>
<circle cx="1.222" cy="486.66" r="1.222" fill="white"/>
<circle cx="25.6614" cy="486.66" r="1.222" fill="white"/>
<circle cx="50.1019" cy="486.66" r="1.222" fill="white"/>
<circle cx="74.5413" cy="486.66" r="1.222" fill="white"/>
<circle cx="98.9818" cy="486.66" r="1.222" fill="white"/>
<circle cx="123.421" cy="486.66" r="1.222" fill="white"/>
<circle cx="147.862" cy="486.66" r="1.222" fill="white"/>
<circle cx="172.301" cy="486.66" r="1.222" fill="white"/>
<circle cx="196.742" cy="486.66" r="1.222" fill="white"/>
<circle cx="221.181" cy="486.66" r="1.222" fill="white"/>
<circle cx="245.621" cy="486.66" r="1.222" fill="white"/>
<circle cx="270.061" cy="486.66" r="1.222" fill="white"/>
<circle cx="294.501" cy="486.66" r="1.222" fill="white"/>
<circle cx="318.941" cy="486.66" r="1.222" fill="white"/>
<circle cx="343.381" cy="486.66" r="1.222" fill="white"/>
<circle cx="367.821" cy="486.66" r="1.222" fill="white"/>
<circle cx="392.261" cy="486.66" r="1.222" fill="white"/>
<circle cx="416.701" cy="486.66" r="1.222" fill="white"/>
<circle cx="441.141" cy="486.66" r="1.222" fill="white"/>
<circle cx="465.58" cy="486.66" r="1.222" fill="white"/>
<circle cx="490.021" cy="486.66" r="1.222" fill="white"/>
<circle cx="514.46" cy="486.66" r="1.222" fill="white"/>
<circle cx="538.9" cy="486.66" r="1.222" fill="white"/>
<circle cx="563.34" cy="486.66" r="1.222" fill="white"/>
<circle cx="587.78" cy="486.66" r="1.222" fill="white"/>
<circle cx="612.22" cy="486.66" r="1.222" fill="white"/>
<circle cx="636.659" cy="486.66" r="1.222" fill="white"/>
<circle cx="661.1" cy="486.66" r="1.222" fill="white"/>
<circle cx="685.539" cy="486.66" r="1.222" fill="white"/>
<circle cx="709.98" cy="486.66" r="1.222" fill="white"/>
<circle cx="734.419" cy="486.66" r="1.222" fill="white"/>
<circle cx="758.86" cy="486.66" r="1.222" fill="white"/>
<circle cx="783.299" cy="486.66" r="1.222" fill="white"/>
<circle cx="807.74" cy="486.66" r="1.222" fill="white"/>
<circle cx="832.179" cy="486.66" r="1.222" fill="white"/>
<circle cx="856.619" cy="486.66" r="1.222" fill="white"/>
<circle cx="881.059" cy="486.66" r="1.222" fill="white"/>
<circle cx="905.499" cy="486.66" r="1.222" fill="white"/>
<circle cx="929.939" cy="486.66" r="1.222" fill="white"/>
<circle cx="954.379" cy="486.66" r="1.222" fill="white"/>
<circle cx="978.819" cy="486.66" r="1.222" fill="white"/>
<circle cx="1003.26" cy="486.66" r="1.222" fill="white"/>
<circle cx="1027.7" cy="486.66" r="1.222" fill="white"/>
<circle cx="1052.14" cy="486.66" r="1.222" fill="white"/>
<circle cx="1076.58" cy="486.66" r="1.222" fill="white"/>
<circle cx="1101.02" cy="486.66" r="1.222" fill="white"/>
<circle cx="1125.46" cy="486.66" r="1.222" fill="white"/>
<circle cx="1149.9" cy="486.66" r="1.222" fill="white"/>
<circle cx="1174.34" cy="486.66" r="1.222" fill="white"/>
<circle cx="1198.78" cy="486.66" r="1.222" fill="white"/>
<circle cx="1.222" cy="511.1" r="1.222" fill="white"/>
<circle cx="25.6614" cy="511.1" r="1.222" fill="white"/>
<circle cx="50.1019" cy="511.1" r="1.222" fill="white"/>
<circle cx="74.5413" cy="511.1" r="1.222" fill="white"/>
<circle cx="98.9818" cy="511.1" r="1.222" fill="white"/>
<circle cx="123.421" cy="511.1" r="1.222" fill="white"/>
<circle cx="147.862" cy="511.1" r="1.222" fill="white"/>
<circle cx="172.301" cy="511.1" r="1.222" fill="white"/>
<circle cx="196.742" cy="511.1" r="1.222" fill="white"/>
<circle cx="221.181" cy="511.1" r="1.222" fill="white"/>
<circle cx="245.621" cy="511.1" r="1.222" fill="white"/>
<circle cx="270.061" cy="511.1" r="1.222" fill="white"/>
<circle cx="294.501" cy="511.1" r="1.222" fill="white"/>
<circle cx="318.941" cy="511.1" r="1.222" fill="white"/>
<circle cx="343.381" cy="511.1" r="1.222" fill="white"/>
<circle cx="367.821" cy="511.1" r="1.222" fill="white"/>
<circle cx="392.261" cy="511.1" r="1.222" fill="white"/>
<circle cx="416.701" cy="511.1" r="1.222" fill="white"/>
<circle cx="441.141" cy="511.1" r="1.222" fill="white"/>
<circle cx="465.58" cy="511.1" r="1.222" fill="white"/>
<circle cx="490.021" cy="511.1" r="1.222" fill="white"/>
<circle cx="514.46" cy="511.1" r="1.222" fill="white"/>
<circle cx="538.9" cy="511.1" r="1.222" fill="white"/>
<circle cx="563.34" cy="511.1" r="1.222" fill="white"/>
<circle cx="587.78" cy="511.1" r="1.222" fill="white"/>
<circle cx="612.22" cy="511.1" r="1.222" fill="white"/>
<circle cx="636.659" cy="511.1" r="1.222" fill="white"/>
<circle cx="661.1" cy="511.1" r="1.222" fill="white"/>
<circle cx="685.539" cy="511.1" r="1.222" fill="white"/>
<circle cx="709.98" cy="511.1" r="1.222" fill="white"/>
<circle cx="734.419" cy="511.1" r="1.222" fill="white"/>
<circle cx="758.86" cy="511.1" r="1.222" fill="white"/>
<circle cx="783.299" cy="511.1" r="1.222" fill="white"/>
<circle cx="807.74" cy="511.1" r="1.222" fill="white"/>
<circle cx="832.179" cy="511.1" r="1.222" fill="white"/>
<circle cx="856.619" cy="511.1" r="1.222" fill="white"/>
<circle cx="881.059" cy="511.1" r="1.222" fill="white"/>
<circle cx="905.499" cy="511.1" r="1.222" fill="white"/>
<circle cx="929.939" cy="511.1" r="1.222" fill="white"/>
<circle cx="954.379" cy="511.1" r="1.222" fill="white"/>
<circle cx="978.819" cy="511.1" r="1.222" fill="white"/>
<circle cx="1003.26" cy="511.1" r="1.222" fill="white"/>
<circle cx="1027.7" cy="511.1" r="1.222" fill="white"/>
<circle cx="1052.14" cy="511.1" r="1.222" fill="white"/>
<circle cx="1076.58" cy="511.1" r="1.222" fill="white"/>
<circle cx="1101.02" cy="511.1" r="1.222" fill="white"/>
<circle cx="1125.46" cy="511.1" r="1.222" fill="white"/>
<circle cx="1149.9" cy="511.1" r="1.222" fill="white"/>
<circle cx="1174.34" cy="511.1" r="1.222" fill="white"/>
<circle cx="1198.78" cy="511.1" r="1.222" fill="white"/>
<circle cx="1.222" cy="535.54" r="1.222" fill="white"/>
<circle cx="25.6614" cy="535.54" r="1.222" fill="white"/>
<circle cx="50.1019" cy="535.54" r="1.222" fill="white"/>
<circle cx="74.5413" cy="535.54" r="1.222" fill="white"/>
<circle cx="98.9818" cy="535.54" r="1.222" fill="white"/>
<circle cx="123.421" cy="535.54" r="1.222" fill="white"/>
<circle cx="147.862" cy="535.54" r="1.222" fill="white"/>
<circle cx="172.301" cy="535.54" r="1.222" fill="white"/>
<circle cx="196.742" cy="535.54" r="1.222" fill="white"/>
<circle cx="221.181" cy="535.54" r="1.222" fill="white"/>
<circle cx="245.621" cy="535.54" r="1.222" fill="white"/>
<circle cx="270.061" cy="535.54" r="1.222" fill="white"/>
<circle cx="294.501" cy="535.54" r="1.222" fill="white"/>
<circle cx="318.941" cy="535.54" r="1.222" fill="white"/>
<circle cx="343.381" cy="535.54" r="1.222" fill="white"/>
<circle cx="367.821" cy="535.54" r="1.222" fill="white"/>
<circle cx="392.261" cy="535.54" r="1.222" fill="white"/>
<circle cx="416.701" cy="535.54" r="1.222" fill="white"/>
<circle cx="441.141" cy="535.54" r="1.222" fill="white"/>
<circle cx="465.58" cy="535.54" r="1.222" fill="white"/>
<circle cx="490.021" cy="535.54" r="1.222" fill="white"/>
<circle cx="514.46" cy="535.54" r="1.222" fill="white"/>
<circle cx="538.9" cy="535.54" r="1.222" fill="white"/>
<circle cx="563.34" cy="535.54" r="1.222" fill="white"/>
<circle cx="587.78" cy="535.54" r="1.222" fill="white"/>
<circle cx="612.22" cy="535.54" r="1.222" fill="white"/>
<circle cx="636.659" cy="535.54" r="1.222" fill="white"/>
<circle cx="661.1" cy="535.54" r="1.222" fill="white"/>
<circle cx="685.539" cy="535.54" r="1.222" fill="white"/>
<circle cx="709.98" cy="535.54" r="1.222" fill="white"/>
<circle cx="734.419" cy="535.54" r="1.222" fill="white"/>
<circle cx="758.86" cy="535.54" r="1.222" fill="white"/>
<circle cx="783.299" cy="535.54" r="1.222" fill="white"/>
<circle cx="807.74" cy="535.54" r="1.222" fill="white"/>
<circle cx="832.179" cy="535.54" r="1.222" fill="white"/>
<circle cx="856.619" cy="535.54" r="1.222" fill="white"/>
<circle cx="881.059" cy="535.54" r="1.222" fill="white"/>
<circle cx="905.499" cy="535.54" r="1.222" fill="white"/>
<circle cx="929.939" cy="535.54" r="1.222" fill="white"/>
<circle cx="954.379" cy="535.54" r="1.222" fill="white"/>
<circle cx="978.819" cy="535.54" r="1.222" fill="white"/>
<circle cx="1003.26" cy="535.54" r="1.222" fill="white"/>
<circle cx="1027.7" cy="535.54" r="1.222" fill="white"/>
<circle cx="1052.14" cy="535.54" r="1.222" fill="white"/>
<circle cx="1076.58" cy="535.54" r="1.222" fill="white"/>
<circle cx="1101.02" cy="535.54" r="1.222" fill="white"/>
<circle cx="1125.46" cy="535.54" r="1.222" fill="white"/>
<circle cx="1149.9" cy="535.54" r="1.222" fill="white"/>
<circle cx="1174.34" cy="535.54" r="1.222" fill="white"/>
<circle cx="1198.78" cy="535.54" r="1.222" fill="white"/>
<circle cx="1.222" cy="559.98" r="1.222" fill="white"/>
<circle cx="25.6614" cy="559.98" r="1.222" fill="white"/>
<circle cx="50.1019" cy="559.98" r="1.222" fill="white"/>
<circle cx="74.5413" cy="559.98" r="1.222" fill="white"/>
<circle cx="98.9818" cy="559.98" r="1.222" fill="white"/>
<circle cx="123.421" cy="559.98" r="1.222" fill="white"/>
<circle cx="147.862" cy="559.98" r="1.222" fill="white"/>
<circle cx="172.301" cy="559.98" r="1.222" fill="white"/>
<circle cx="196.742" cy="559.98" r="1.222" fill="white"/>
<circle cx="221.181" cy="559.98" r="1.222" fill="white"/>
<circle cx="245.621" cy="559.98" r="1.222" fill="white"/>
<circle cx="270.061" cy="559.98" r="1.222" fill="white"/>
<circle cx="294.501" cy="559.98" r="1.222" fill="white"/>
<circle cx="318.941" cy="559.98" r="1.222" fill="white"/>
<circle cx="343.381" cy="559.98" r="1.222" fill="white"/>
<circle cx="367.821" cy="559.98" r="1.222" fill="white"/>
<circle cx="392.261" cy="559.98" r="1.222" fill="white"/>
<circle cx="416.701" cy="559.98" r="1.222" fill="white"/>
<circle cx="441.141" cy="559.98" r="1.222" fill="white"/>
<circle cx="465.58" cy="559.98" r="1.222" fill="white"/>
<circle cx="490.021" cy="559.98" r="1.222" fill="white"/>
<circle cx="514.46" cy="559.98" r="1.222" fill="white"/>
<circle cx="538.9" cy="559.98" r="1.222" fill="white"/>
<circle cx="563.34" cy="559.98" r="1.222" fill="white"/>
<circle cx="587.78" cy="559.98" r="1.222" fill="white"/>
<circle cx="612.22" cy="559.98" r="1.222" fill="white"/>
<circle cx="636.659" cy="559.98" r="1.222" fill="white"/>
<circle cx="661.1" cy="559.98" r="1.222" fill="white"/>
<circle cx="685.539" cy="559.98" r="1.222" fill="white"/>
<circle cx="709.98" cy="559.98" r="1.222" fill="white"/>
<circle cx="734.419" cy="559.98" r="1.222" fill="white"/>
<circle cx="758.86" cy="559.98" r="1.222" fill="white"/>
<circle cx="783.299" cy="559.98" r="1.222" fill="white"/>
<circle cx="807.74" cy="559.98" r="1.222" fill="white"/>
<circle cx="832.179" cy="559.98" r="1.222" fill="white"/>
<circle cx="856.619" cy="559.98" r="1.222" fill="white"/>
<circle cx="881.059" cy="559.98" r="1.222" fill="white"/>
<circle cx="905.499" cy="559.98" r="1.222" fill="white"/>
<circle cx="929.939" cy="559.98" r="1.222" fill="white"/>
<circle cx="954.379" cy="559.98" r="1.222" fill="white"/>
<circle cx="978.819" cy="559.98" r="1.222" fill="white"/>
<circle cx="1003.26" cy="559.98" r="1.222" fill="white"/>
<circle cx="1027.7" cy="559.98" r="1.222" fill="white"/>
<circle cx="1052.14" cy="559.98" r="1.222" fill="white"/>
<circle cx="1076.58" cy="559.98" r="1.222" fill="white"/>
<circle cx="1101.02" cy="559.98" r="1.222" fill="white"/>
<circle cx="1125.46" cy="559.98" r="1.222" fill="white"/>
<circle cx="1149.9" cy="559.98" r="1.222" fill="white"/>
<circle cx="1174.34" cy="559.98" r="1.222" fill="white"/>
<circle cx="1198.78" cy="559.98" r="1.222" fill="white"/>
<circle cx="1.222" cy="584.42" r="1.222" fill="white"/>
<circle cx="25.6614" cy="584.42" r="1.222" fill="white"/>
<circle cx="50.1019" cy="584.42" r="1.222" fill="white"/>
<circle cx="74.5413" cy="584.42" r="1.222" fill="white"/>
<circle cx="98.9818" cy="584.42" r="1.222" fill="white"/>
<circle cx="123.421" cy="584.42" r="1.222" fill="white"/>
<circle cx="147.862" cy="584.42" r="1.222" fill="white"/>
<circle cx="172.301" cy="584.42" r="1.222" fill="white"/>
<circle cx="196.742" cy="584.42" r="1.222" fill="white"/>
<circle cx="221.181" cy="584.42" r="1.222" fill="white"/>
<circle cx="245.621" cy="584.42" r="1.222" fill="white"/>
<circle cx="270.061" cy="584.42" r="1.222" fill="white"/>
<circle cx="294.501" cy="584.42" r="1.222" fill="white"/>
<circle cx="318.941" cy="584.42" r="1.222" fill="white"/>
<circle cx="343.381" cy="584.42" r="1.222" fill="white"/>
<circle cx="367.821" cy="584.42" r="1.222" fill="white"/>
<circle cx="392.261" cy="584.42" r="1.222" fill="white"/>
<circle cx="416.701" cy="584.42" r="1.222" fill="white"/>
<circle cx="441.141" cy="584.42" r="1.222" fill="white"/>
<circle cx="465.58" cy="584.42" r="1.222" fill="white"/>
<circle cx="490.021" cy="584.42" r="1.222" fill="white"/>
<circle cx="514.46" cy="584.42" r="1.222" fill="white"/>
<circle cx="538.9" cy="584.42" r="1.222" fill="white"/>
<circle cx="563.34" cy="584.42" r="1.222" fill="white"/>
<circle cx="587.78" cy="584.42" r="1.222" fill="white"/>
<circle cx="612.22" cy="584.42" r="1.222" fill="white"/>
<circle cx="636.659" cy="584.42" r="1.222" fill="white"/>
<circle cx="661.1" cy="584.42" r="1.222" fill="white"/>
<circle cx="685.539" cy="584.42" r="1.222" fill="white"/>
<circle cx="709.98" cy="584.42" r="1.222" fill="white"/>
<circle cx="734.419" cy="584.42" r="1.222" fill="white"/>
<circle cx="758.86" cy="584.42" r="1.222" fill="white"/>
<circle cx="783.299" cy="584.42" r="1.222" fill="white"/>
<circle cx="807.74" cy="584.42" r="1.222" fill="white"/>
<circle cx="832.179" cy="584.42" r="1.222" fill="white"/>
<circle cx="856.619" cy="584.42" r="1.222" fill="white"/>
<circle cx="881.059" cy="584.42" r="1.222" fill="white"/>
<circle cx="905.499" cy="584.42" r="1.222" fill="white"/>
<circle cx="929.939" cy="584.42" r="1.222" fill="white"/>
<circle cx="954.379" cy="584.42" r="1.222" fill="white"/>
<circle cx="978.819" cy="584.42" r="1.222" fill="white"/>
<circle cx="1003.26" cy="584.42" r="1.222" fill="white"/>
<circle cx="1027.7" cy="584.42" r="1.222" fill="white"/>
<circle cx="1052.14" cy="584.42" r="1.222" fill="white"/>
<circle cx="1076.58" cy="584.42" r="1.222" fill="white"/>
<circle cx="1101.02" cy="584.42" r="1.222" fill="white"/>
<circle cx="1125.46" cy="584.42" r="1.222" fill="white"/>
<circle cx="1149.9" cy="584.42" r="1.222" fill="white"/>
<circle cx="1174.34" cy="584.42" r="1.222" fill="white"/>
<circle cx="1198.78" cy="584.42" r="1.222" fill="white"/>
<circle cx="1.222" cy="608.859" r="1.222" fill="white"/>
<circle cx="25.6614" cy="608.859" r="1.222" fill="white"/>
<circle cx="50.1019" cy="608.859" r="1.222" fill="white"/>
<circle cx="74.5413" cy="608.859" r="1.222" fill="white"/>
<circle cx="98.9818" cy="608.859" r="1.222" fill="white"/>
<circle cx="123.421" cy="608.859" r="1.222" fill="white"/>
<circle cx="147.862" cy="608.859" r="1.222" fill="white"/>
<circle cx="172.301" cy="608.859" r="1.222" fill="white"/>
<circle cx="196.742" cy="608.859" r="1.222" fill="white"/>
<circle cx="221.181" cy="608.859" r="1.222" fill="white"/>
<circle cx="245.621" cy="608.859" r="1.222" fill="white"/>
<circle cx="270.061" cy="608.859" r="1.222" fill="white"/>
<circle cx="294.501" cy="608.859" r="1.222" fill="white"/>
<circle cx="318.941" cy="608.859" r="1.222" fill="white"/>
<circle cx="343.381" cy="608.859" r="1.222" fill="white"/>
<circle cx="367.821" cy="608.859" r="1.222" fill="white"/>
<circle cx="392.261" cy="608.859" r="1.222" fill="white"/>
<circle cx="416.701" cy="608.859" r="1.222" fill="white"/>
<circle cx="441.141" cy="608.859" r="1.222" fill="white"/>
<circle cx="465.58" cy="608.859" r="1.222" fill="white"/>
<circle cx="490.021" cy="608.859" r="1.222" fill="white"/>
<circle cx="514.46" cy="608.859" r="1.222" fill="white"/>
<circle cx="538.9" cy="608.859" r="1.222" fill="white"/>
<circle cx="563.34" cy="608.859" r="1.222" fill="white"/>
<circle cx="587.78" cy="608.859" r="1.222" fill="white"/>
<circle cx="612.22" cy="608.859" r="1.222" fill="white"/>
<circle cx="636.659" cy="608.859" r="1.222" fill="white"/>
<circle cx="661.1" cy="608.859" r="1.222" fill="white"/>
<circle cx="685.539" cy="608.859" r="1.222" fill="white"/>
<circle cx="709.98" cy="608.859" r="1.222" fill="white"/>
<circle cx="734.419" cy="608.859" r="1.222" fill="white"/>
<circle cx="758.86" cy="608.859" r="1.222" fill="white"/>
<circle cx="783.299" cy="608.859" r="1.222" fill="white"/>
<circle cx="807.74" cy="608.859" r="1.222" fill="white"/>
<circle cx="832.179" cy="608.859" r="1.222" fill="white"/>
<circle cx="856.619" cy="608.859" r="1.222" fill="white"/>
<circle cx="881.059" cy="608.859" r="1.222" fill="white"/>
<circle cx="905.499" cy="608.859" r="1.222" fill="white"/>
<circle cx="929.939" cy="608.859" r="1.222" fill="white"/>
<circle cx="954.379" cy="608.859" r="1.222" fill="white"/>
<circle cx="978.819" cy="608.859" r="1.222" fill="white"/>
<circle cx="1003.26" cy="608.859" r="1.222" fill="white"/>
<circle cx="1027.7" cy="608.859" r="1.222" fill="white"/>
<circle cx="1052.14" cy="608.859" r="1.222" fill="white"/>
<circle cx="1076.58" cy="608.859" r="1.222" fill="white"/>
<circle cx="1101.02" cy="608.859" r="1.222" fill="white"/>
<circle cx="1125.46" cy="608.859" r="1.222" fill="white"/>
<circle cx="1149.9" cy="608.859" r="1.222" fill="white"/>
<circle cx="1174.34" cy="608.859" r="1.222" fill="white"/>
<circle cx="1198.78" cy="608.859" r="1.222" fill="white"/>
<circle cx="1.222" cy="633.299" r="1.222" fill="white"/>
<circle cx="25.6614" cy="633.299" r="1.222" fill="white"/>
<circle cx="50.1019" cy="633.299" r="1.222" fill="white"/>
<circle cx="74.5413" cy="633.299" r="1.222" fill="white"/>
<circle cx="98.9818" cy="633.299" r="1.222" fill="white"/>
<circle cx="123.421" cy="633.299" r="1.222" fill="white"/>
<circle cx="147.862" cy="633.299" r="1.222" fill="white"/>
<circle cx="172.301" cy="633.299" r="1.222" fill="white"/>
<circle cx="196.742" cy="633.299" r="1.222" fill="white"/>
<circle cx="221.181" cy="633.299" r="1.222" fill="white"/>
<circle cx="245.621" cy="633.299" r="1.222" fill="white"/>
<circle cx="270.061" cy="633.299" r="1.222" fill="white"/>
<circle cx="294.501" cy="633.299" r="1.222" fill="white"/>
<circle cx="318.941" cy="633.299" r="1.222" fill="white"/>
<circle cx="343.381" cy="633.299" r="1.222" fill="white"/>
<circle cx="367.821" cy="633.299" r="1.222" fill="white"/>
<circle cx="392.261" cy="633.299" r="1.222" fill="white"/>
<circle cx="416.701" cy="633.299" r="1.222" fill="white"/>
<circle cx="441.141" cy="633.299" r="1.222" fill="white"/>
<circle cx="465.58" cy="633.299" r="1.222" fill="white"/>
<circle cx="490.021" cy="633.299" r="1.222" fill="white"/>
<circle cx="514.46" cy="633.299" r="1.222" fill="white"/>
<circle cx="538.9" cy="633.299" r="1.222" fill="white"/>
<circle cx="563.34" cy="633.299" r="1.222" fill="white"/>
<circle cx="587.78" cy="633.299" r="1.222" fill="white"/>
<circle cx="612.22" cy="633.299" r="1.222" fill="white"/>
<circle cx="636.659" cy="633.299" r="1.222" fill="white"/>
<circle cx="661.1" cy="633.299" r="1.222" fill="white"/>
<circle cx="685.539" cy="633.299" r="1.222" fill="white"/>
<circle cx="709.98" cy="633.299" r="1.222" fill="white"/>
<circle cx="734.419" cy="633.299" r="1.222" fill="white"/>
<circle cx="758.86" cy="633.299" r="1.222" fill="white"/>
<circle cx="783.299" cy="633.299" r="1.222" fill="white"/>
<circle cx="807.74" cy="633.299" r="1.222" fill="white"/>
<circle cx="832.179" cy="633.299" r="1.222" fill="white"/>
<circle cx="856.619" cy="633.299" r="1.222" fill="white"/>
<circle cx="881.059" cy="633.299" r="1.222" fill="white"/>
<circle cx="905.499" cy="633.299" r="1.222" fill="white"/>
<circle cx="929.939" cy="633.299" r="1.222" fill="white"/>
<circle cx="954.379" cy="633.299" r="1.222" fill="white"/>
<circle cx="978.819" cy="633.299" r="1.222" fill="white"/>
<circle cx="1003.26" cy="633.299" r="1.222" fill="white"/>
<circle cx="1027.7" cy="633.299" r="1.222" fill="white"/>
<circle cx="1052.14" cy="633.299" r="1.222" fill="white"/>
<circle cx="1076.58" cy="633.299" r="1.222" fill="white"/>
<circle cx="1101.02" cy="633.299" r="1.222" fill="white"/>
<circle cx="1125.46" cy="633.299" r="1.222" fill="white"/>
<circle cx="1149.9" cy="633.299" r="1.222" fill="white"/>
<circle cx="1174.34" cy="633.299" r="1.222" fill="white"/>
<circle cx="1198.78" cy="633.299" r="1.222" fill="white"/>
<circle cx="1.222" cy="657.739" r="1.222" fill="white"/>
<circle cx="25.6614" cy="657.739" r="1.222" fill="white"/>
<circle cx="50.1019" cy="657.739" r="1.222" fill="white"/>
<circle cx="74.5413" cy="657.739" r="1.222" fill="white"/>
<circle cx="98.9818" cy="657.739" r="1.222" fill="white"/>
<circle cx="123.421" cy="657.739" r="1.222" fill="white"/>
<circle cx="147.862" cy="657.739" r="1.222" fill="white"/>
<circle cx="172.301" cy="657.739" r="1.222" fill="white"/>
<circle cx="196.742" cy="657.739" r="1.222" fill="white"/>
<circle cx="221.181" cy="657.739" r="1.222" fill="white"/>
<circle cx="245.621" cy="657.739" r="1.222" fill="white"/>
<circle cx="270.061" cy="657.739" r="1.222" fill="white"/>
<circle cx="294.501" cy="657.739" r="1.222" fill="white"/>
<circle cx="318.941" cy="657.739" r="1.222" fill="white"/>
<circle cx="343.381" cy="657.739" r="1.222" fill="white"/>
<circle cx="367.821" cy="657.739" r="1.222" fill="white"/>
<circle cx="392.261" cy="657.739" r="1.222" fill="white"/>
<circle cx="416.701" cy="657.739" r="1.222" fill="white"/>
<circle cx="441.141" cy="657.739" r="1.222" fill="white"/>
<circle cx="465.58" cy="657.739" r="1.222" fill="white"/>
<circle cx="490.021" cy="657.739" r="1.222" fill="white"/>
<circle cx="514.46" cy="657.739" r="1.222" fill="white"/>
<circle cx="538.9" cy="657.739" r="1.222" fill="white"/>
<circle cx="563.34" cy="657.739" r="1.222" fill="white"/>
<circle cx="587.78" cy="657.739" r="1.222" fill="white"/>
<circle cx="612.22" cy="657.739" r="1.222" fill="white"/>
<circle cx="636.659" cy="657.739" r="1.222" fill="white"/>
<circle cx="661.1" cy="657.739" r="1.222" fill="white"/>
<circle cx="685.539" cy="657.739" r="1.222" fill="white"/>
<circle cx="709.98" cy="657.739" r="1.222" fill="white"/>
<circle cx="734.419" cy="657.739" r="1.222" fill="white"/>
<circle cx="758.86" cy="657.739" r="1.222" fill="white"/>
<circle cx="783.299" cy="657.739" r="1.222" fill="white"/>
<circle cx="807.74" cy="657.739" r="1.222" fill="white"/>
<circle cx="832.179" cy="657.739" r="1.222" fill="white"/>
<circle cx="856.619" cy="657.739" r="1.222" fill="white"/>
<circle cx="881.059" cy="657.739" r="1.222" fill="white"/>
<circle cx="905.499" cy="657.739" r="1.222" fill="white"/>
<circle cx="929.939" cy="657.739" r="1.222" fill="white"/>
<circle cx="954.379" cy="657.739" r="1.222" fill="white"/>
<circle cx="978.819" cy="657.739" r="1.222" fill="white"/>
<circle cx="1003.26" cy="657.739" r="1.222" fill="white"/>
<circle cx="1027.7" cy="657.739" r="1.222" fill="white"/>
<circle cx="1052.14" cy="657.739" r="1.222" fill="white"/>
<circle cx="1076.58" cy="657.739" r="1.222" fill="white"/>
<circle cx="1101.02" cy="657.739" r="1.222" fill="white"/>
<circle cx="1125.46" cy="657.739" r="1.222" fill="white"/>
<circle cx="1149.9" cy="657.739" r="1.222" fill="white"/>
<circle cx="1174.34" cy="657.739" r="1.222" fill="white"/>
<circle cx="1198.78" cy="657.739" r="1.222" fill="white"/>
<circle cx="1.222" cy="682.179" r="1.222" fill="white"/>
<circle cx="25.6614" cy="682.179" r="1.222" fill="white"/>
<circle cx="50.1019" cy="682.179" r="1.222" fill="white"/>
<circle cx="74.5413" cy="682.179" r="1.222" fill="white"/>
<circle cx="98.9818" cy="682.179" r="1.222" fill="white"/>
<circle cx="123.421" cy="682.179" r="1.222" fill="white"/>
<circle cx="147.862" cy="682.179" r="1.222" fill="white"/>
<circle cx="172.301" cy="682.179" r="1.222" fill="white"/>
<circle cx="196.742" cy="682.179" r="1.222" fill="white"/>
<circle cx="221.181" cy="682.179" r="1.222" fill="white"/>
<circle cx="245.621" cy="682.179" r="1.222" fill="white"/>
<circle cx="270.061" cy="682.179" r="1.222" fill="white"/>
<circle cx="294.501" cy="682.179" r="1.222" fill="white"/>
<circle cx="318.941" cy="682.179" r="1.222" fill="white"/>
<circle cx="343.381" cy="682.179" r="1.222" fill="white"/>
<circle cx="367.821" cy="682.179" r="1.222" fill="white"/>
<circle cx="392.261" cy="682.179" r="1.222" fill="white"/>
<circle cx="416.701" cy="682.179" r="1.222" fill="white"/>
<circle cx="441.141" cy="682.179" r="1.222" fill="white"/>
<circle cx="465.58" cy="682.179" r="1.222" fill="white"/>
<circle cx="490.021" cy="682.179" r="1.222" fill="white"/>
<circle cx="514.46" cy="682.179" r="1.222" fill="white"/>
<circle cx="538.9" cy="682.179" r="1.222" fill="white"/>
<circle cx="563.34" cy="682.179" r="1.222" fill="white"/>
<circle cx="587.78" cy="682.179" r="1.222" fill="white"/>
<circle cx="612.22" cy="682.179" r="1.222" fill="white"/>
<circle cx="636.659" cy="682.179" r="1.222" fill="white"/>
<circle cx="661.1" cy="682.179" r="1.222" fill="white"/>
<circle cx="685.539" cy="682.179" r="1.222" fill="white"/>
<circle cx="709.98" cy="682.179" r="1.222" fill="white"/>
<circle cx="734.419" cy="682.179" r="1.222" fill="white"/>
<circle cx="758.86" cy="682.179" r="1.222" fill="white"/>
<circle cx="783.299" cy="682.179" r="1.222" fill="white"/>
<circle cx="807.74" cy="682.179" r="1.222" fill="white"/>
<circle cx="832.179" cy="682.179" r="1.222" fill="white"/>
<circle cx="856.619" cy="682.179" r="1.222" fill="white"/>
<circle cx="881.059" cy="682.179" r="1.222" fill="white"/>
<circle cx="905.499" cy="682.179" r="1.222" fill="white"/>
<circle cx="929.939" cy="682.179" r="1.222" fill="white"/>
<circle cx="954.379" cy="682.179" r="1.222" fill="white"/>
<circle cx="978.819" cy="682.179" r="1.222" fill="white"/>
<circle cx="1003.26" cy="682.179" r="1.222" fill="white"/>
<circle cx="1027.7" cy="682.179" r="1.222" fill="white"/>
<circle cx="1052.14" cy="682.179" r="1.222" fill="white"/>
<circle cx="1076.58" cy="682.179" r="1.222" fill="white"/>
<circle cx="1101.02" cy="682.179" r="1.222" fill="white"/>
<circle cx="1125.46" cy="682.179" r="1.222" fill="white"/>
<circle cx="1149.9" cy="682.179" r="1.222" fill="white"/>
<circle cx="1174.34" cy="682.179" r="1.222" fill="white"/>
<circle cx="1198.78" cy="682.179" r="1.222" fill="white"/>
<circle cx="1.222" cy="706.619" r="1.222" fill="white"/>
<circle cx="25.6614" cy="706.619" r="1.222" fill="white"/>
<circle cx="50.1019" cy="706.619" r="1.222" fill="white"/>
<circle cx="74.5413" cy="706.619" r="1.222" fill="white"/>
<circle cx="98.9818" cy="706.619" r="1.222" fill="white"/>
<circle cx="123.421" cy="706.619" r="1.222" fill="white"/>
<circle cx="147.862" cy="706.619" r="1.222" fill="white"/>
<circle cx="172.301" cy="706.619" r="1.222" fill="white"/>
<circle cx="196.742" cy="706.619" r="1.222" fill="white"/>
<circle cx="221.181" cy="706.619" r="1.222" fill="white"/>
<circle cx="245.621" cy="706.619" r="1.222" fill="white"/>
<circle cx="270.061" cy="706.619" r="1.222" fill="white"/>
<circle cx="294.501" cy="706.619" r="1.222" fill="white"/>
<circle cx="318.941" cy="706.619" r="1.222" fill="white"/>
<circle cx="343.381" cy="706.619" r="1.222" fill="white"/>
<circle cx="367.821" cy="706.619" r="1.222" fill="white"/>
<circle cx="392.261" cy="706.619" r="1.222" fill="white"/>
<circle cx="416.701" cy="706.619" r="1.222" fill="white"/>
<circle cx="441.141" cy="706.619" r="1.222" fill="white"/>
<circle cx="465.58" cy="706.619" r="1.222" fill="white"/>
<circle cx="490.021" cy="706.619" r="1.222" fill="white"/>
<circle cx="514.46" cy="706.619" r="1.222" fill="white"/>
<circle cx="538.9" cy="706.619" r="1.222" fill="white"/>
<circle cx="563.34" cy="706.619" r="1.222" fill="white"/>
<circle cx="587.78" cy="706.619" r="1.222" fill="white"/>
<circle cx="612.22" cy="706.619" r="1.222" fill="white"/>
<circle cx="636.659" cy="706.619" r="1.222" fill="white"/>
<circle cx="661.1" cy="706.619" r="1.222" fill="white"/>
<circle cx="685.539" cy="706.619" r="1.222" fill="white"/>
<circle cx="709.98" cy="706.619" r="1.222" fill="white"/>
<circle cx="734.419" cy="706.619" r="1.222" fill="white"/>
<circle cx="758.86" cy="706.619" r="1.222" fill="white"/>
<circle cx="783.299" cy="706.619" r="1.222" fill="white"/>
<circle cx="807.74" cy="706.619" r="1.222" fill="white"/>
<circle cx="832.179" cy="706.619" r="1.222" fill="white"/>
<circle cx="856.619" cy="706.619" r="1.222" fill="white"/>
<circle cx="881.059" cy="706.619" r="1.222" fill="white"/>
<circle cx="905.499" cy="706.619" r="1.222" fill="white"/>
<circle cx="929.939" cy="706.619" r="1.222" fill="white"/>
<circle cx="954.379" cy="706.619" r="1.222" fill="white"/>
<circle cx="978.819" cy="706.619" r="1.222" fill="white"/>
<circle cx="1003.26" cy="706.619" r="1.222" fill="white"/>
<circle cx="1027.7" cy="706.619" r="1.222" fill="white"/>
<circle cx="1052.14" cy="706.619" r="1.222" fill="white"/>
<circle cx="1076.58" cy="706.619" r="1.222" fill="white"/>
<circle cx="1101.02" cy="706.619" r="1.222" fill="white"/>
<circle cx="1125.46" cy="706.619" r="1.222" fill="white"/>
<circle cx="1149.9" cy="706.619" r="1.222" fill="white"/>
<circle cx="1174.34" cy="706.619" r="1.222" fill="white"/>
<circle cx="1198.78" cy="706.619" r="1.222" fill="white"/>
<circle cx="1.222" cy="731.059" r="1.222" fill="white"/>
<circle cx="25.6614" cy="731.059" r="1.222" fill="white"/>
<circle cx="50.1019" cy="731.059" r="1.222" fill="white"/>
<circle cx="74.5413" cy="731.059" r="1.222" fill="white"/>
<circle cx="98.9818" cy="731.059" r="1.222" fill="white"/>
<circle cx="123.421" cy="731.059" r="1.222" fill="white"/>
<circle cx="147.862" cy="731.059" r="1.222" fill="white"/>
<circle cx="172.301" cy="731.059" r="1.222" fill="white"/>
<circle cx="196.742" cy="731.059" r="1.222" fill="white"/>
<circle cx="221.181" cy="731.059" r="1.222" fill="white"/>
<circle cx="245.621" cy="731.059" r="1.222" fill="white"/>
<circle cx="270.061" cy="731.059" r="1.222" fill="white"/>
<circle cx="294.501" cy="731.059" r="1.222" fill="white"/>
<circle cx="318.941" cy="731.059" r="1.222" fill="white"/>
<circle cx="343.381" cy="731.059" r="1.222" fill="white"/>
<circle cx="367.821" cy="731.059" r="1.222" fill="white"/>
<circle cx="392.261" cy="731.059" r="1.222" fill="white"/>
<circle cx="416.701" cy="731.059" r="1.222" fill="white"/>
<circle cx="441.141" cy="731.059" r="1.222" fill="white"/>
<circle cx="465.58" cy="731.059" r="1.222" fill="white"/>
<circle cx="490.021" cy="731.059" r="1.222" fill="white"/>
<circle cx="514.46" cy="731.059" r="1.222" fill="white"/>
<circle cx="538.9" cy="731.059" r="1.222" fill="white"/>
<circle cx="563.34" cy="731.059" r="1.222" fill="white"/>
<circle cx="587.78" cy="731.059" r="1.222" fill="white"/>
<circle cx="612.22" cy="731.059" r="1.222" fill="white"/>
<circle cx="636.659" cy="731.059" r="1.222" fill="white"/>
<circle cx="661.1" cy="731.059" r="1.222" fill="white"/>
<circle cx="685.539" cy="731.059" r="1.222" fill="white"/>
<circle cx="709.98" cy="731.059" r="1.222" fill="white"/>
<circle cx="734.419" cy="731.059" r="1.222" fill="white"/>
<circle cx="758.86" cy="731.059" r="1.222" fill="white"/>
<circle cx="783.299" cy="731.059" r="1.222" fill="white"/>
<circle cx="807.74" cy="731.059" r="1.222" fill="white"/>
<circle cx="832.179" cy="731.059" r="1.222" fill="white"/>
<circle cx="856.619" cy="731.059" r="1.222" fill="white"/>
<circle cx="881.059" cy="731.059" r="1.222" fill="white"/>
<circle cx="905.499" cy="731.059" r="1.222" fill="white"/>
<circle cx="929.939" cy="731.059" r="1.222" fill="white"/>
<circle cx="954.379" cy="731.059" r="1.222" fill="white"/>
<circle cx="978.819" cy="731.059" r="1.222" fill="white"/>
<circle cx="1003.26" cy="731.059" r="1.222" fill="white"/>
<circle cx="1027.7" cy="731.059" r="1.222" fill="white"/>
<circle cx="1052.14" cy="731.059" r="1.222" fill="white"/>
<circle cx="1076.58" cy="731.059" r="1.222" fill="white"/>
<circle cx="1101.02" cy="731.059" r="1.222" fill="white"/>
<circle cx="1125.46" cy="731.059" r="1.222" fill="white"/>
<circle cx="1149.9" cy="731.059" r="1.222" fill="white"/>
<circle cx="1174.34" cy="731.059" r="1.222" fill="white"/>
<circle cx="1198.78" cy="731.059" r="1.222" fill="white"/>
</mask>
<g mask="url(#mask0)">
<ellipse cx="600" cy="297.606" rx="600" ry="434.606" fill="url(#paint0_radial)"/>
</g>
</g>
</g>
<defs>
<radialGradient id="paint0_radial" cx="0" cy="0" r="1" gradientUnits="userSpaceOnUse" gradientTransform="translate(600 297.606) rotate(90) scale(434.606 600)">
<stop stop-color="#DA3926"/>
<stop offset="1" stop-color="#F69321" stop-opacity="0"/>
</radialGradient>
<clipPath id="clip0">
<rect width="1200" height="732" fill="white"/>
</clipPath>
</defs>
</svg>
