<svg width="48" height="48" viewBox="0 0 48 48" fill="none" xmlns="http://www.w3.org/2000/svg">
<path d="M43.9756 29.1898L43.9298 30.7027C43.9298 31.2528 43.6547 31.7571 43.1504 32.078L24.7671 42.6679C24.2628 42.9429 23.6668 42.9429 23.1626 42.6679L4.82506 32.078C4.22909 31.7112 3.99987 31.1152 4.04572 30.4276V29.5107L4.09156 27.5394C4.09156 26.9893 4.27493 27.952 4.82506 27.6311H7.75906L23.2084 18.6916C23.7127 18.4165 24.3087 18.4165 24.8129 18.6916L40.2623 27.677L43.5172 26.485C44.159 26.9893 43.9756 28.6855 43.9756 29.1898Z" fill="url(#paint0_linear)"/>
<path d="M43.9299 27.5852C43.9299 28.1354 43.6549 28.6397 43.1506 28.9606L24.7672 39.5963C24.2629 39.8714 23.667 39.8714 23.1627 39.5963L4.77934 28.9606C4.22922 28.6397 4 28.1354 4 27.5852C4 27.0351 4.27506 26.5308 4.77934 26.2099L23.2085 15.5742C23.7128 15.2991 24.3088 15.2991 24.7672 15.5742L33.34 20.5253L36.4574 22.3132L43.1506 26.1641C43.7007 26.485 43.9299 27.0351 43.9299 27.5852Z" fill="url(#paint1_linear)"/>
<path opacity="0.64" d="M28.4807 29.3274L39.1165 27.5394L38.0621 23.2301L28.4807 29.3274Z" fill="url(#paint2_linear)"/>
<path opacity="0.64" d="M33.7983 21.0754L13.1228 29.0981L14.1772 22.084L23.2084 15.5742C23.7127 15.2991 24.3087 15.2991 24.7671 15.5742L33.3399 20.5253L33.7983 21.0754Z" fill="url(#paint3_linear)"/>
<path d="M6.29248 32.1238V31.0236L18.9912 38.2669V39.3671L6.29248 32.1238Z" fill="#FDF0E9"/>
<path d="M21.0082 40.605C21.2614 40.605 21.4667 40.3381 21.4667 40.009C21.4667 39.6799 21.2614 39.413 21.0082 39.413C20.7551 39.413 20.5498 39.6799 20.5498 40.009C20.5498 40.3381 20.7551 40.605 21.0082 40.605Z" fill="url(#paint4_linear)"/>
<path opacity="0.79" d="M26.6467 39.7798L41.9585 30.8402" stroke="#FDF0E9" stroke-width="0.5" stroke-miterlimit="10" stroke-linecap="round" stroke-linejoin="round"/>
<path opacity="0.79" d="M26.7844 40.5133L42.0962 31.5738" stroke="#FDF0E9" stroke-width="0.5" stroke-miterlimit="10" stroke-linecap="round" stroke-linejoin="round"/>
<path d="M26.8305 6.17631L25.9136 5.48865C25.8219 5.39696 25.6385 5.25943 25.5469 5.16774L25.5927 5.21359L25.5469 5.16774C24.905 4.84684 24.3091 5.03021 23.8048 5.35112L12.8023 11.6776C12.298 11.9526 12.0229 12.5027 12.0229 13.0529V28.2272C12.0229 28.3188 12.023 28.3647 12.0688 28.4105L12.9398 29.0523L14.1318 25.0181L15.6446 22.7259L25.5927 16.7204C26.0511 16.4453 26.372 15.941 26.372 15.3451V6.81812L26.8305 6.17631Z" fill="url(#paint5_linear)"/>
<path d="M12.9395 29.0523V13.7863C12.9395 13.2362 13.2604 12.6861 13.7188 12.411L24.9505 5.94706C26.0049 5.35109 27.3344 6.08459 27.3344 7.32237V16.1244C27.3344 16.6745 27.0593 17.1788 26.5551 17.4997L16.5611 23.5052C15.5984 24.0553 14.8649 24.9264 14.4523 25.9349L13.1228 29.0982C13.077 29.144 12.9395 29.144 12.9395 29.0523Z" fill="#FDF0E9"/>
<path d="M27.6097 19.3793L36.7785 14.0156C37.0994 13.8322 37.4203 13.7864 37.787 13.7864C38.6581 13.7864 39.254 14.7491 38.979 15.2075V27.5395C38.979 27.677 38.7039 27.7687 38.5205 27.4478L37.3286 25.339C37.0535 24.7889 35.9991 24.1929 35.449 24.5138L28.6183 29.144C28.2515 29.4649 27.8389 29.4191 27.518 29.2816C27.1054 29.0982 26.8762 28.6398 26.8762 28.2272V20.5713C26.9679 20.067 27.243 19.6085 27.6097 19.3793Z" fill="url(#paint6_linear)"/>
<path d="M28.4345 19.7919L37.97 14.1989C38.4743 13.9239 39.1161 14.2906 39.1161 14.8408V27.5395C39.1161 27.6312 38.9786 27.677 38.9328 27.5853L37.7867 25.2931C37.5116 24.743 36.8698 24.5596 36.3655 24.8347L28.4804 29.3274C28.1595 29.5108 27.7927 29.2815 27.7927 28.9148V20.938C27.7927 20.4337 28.0219 20.0211 28.4345 19.7919Z" fill="#FDF0E9"/>
<path d="M35.2653 21.9007C35.3111 21.6715 35.4945 21.4423 35.6779 21.3506C35.7237 21.3047 35.8154 21.2589 35.8154 21.1672C35.8154 20.938 35.7695 20.7088 35.7237 20.5254C35.632 20.6171 35.4945 20.7088 35.357 20.7088C35.0819 20.7088 34.9444 20.4795 35.036 20.1586C35.0819 19.9753 35.1736 19.8377 35.2653 19.746C35.1277 19.6085 34.9444 19.471 34.7151 19.4251C34.6693 19.4251 34.5776 19.471 34.5318 19.5168C34.3942 19.746 34.2109 19.8836 34.0275 19.8836C33.8441 19.8836 33.7066 19.746 33.6607 19.5168C33.6607 19.4251 33.6149 19.4251 33.5232 19.4251C33.3398 19.5168 33.1106 19.6085 32.9272 19.7002C32.9731 19.7919 32.9731 19.9294 32.9272 20.067C32.8355 20.3879 32.6063 20.6629 32.3313 20.6629C32.2396 20.6629 32.1937 20.6629 32.1479 20.6171C32.102 20.5712 32.0104 20.6171 31.9645 20.6629C31.827 20.8463 31.6895 21.0755 31.5978 21.3047C31.5519 21.3964 31.5978 21.4423 31.6436 21.4881C31.827 21.5798 31.8728 21.7632 31.827 21.9924C31.7811 22.2216 31.5978 22.4508 31.4144 22.5425C31.3685 22.5884 31.2769 22.6342 31.2769 22.7259C31.2769 22.9093 31.2769 23.0926 31.3227 23.276C31.4144 23.1843 31.5061 23.1385 31.6436 23.1385C31.9187 23.1385 32.0562 23.3677 31.9645 23.6886C31.9187 23.8261 31.827 24.0095 31.7353 24.1012C31.9187 24.2846 32.102 24.4221 32.3313 24.5138C32.3771 24.5138 32.4688 24.468 32.5146 24.4221C32.6063 24.1929 32.8355 24.0095 33.0648 24.0095C33.294 24.0095 33.4315 24.147 33.4315 24.3763C33.4315 24.468 33.4774 24.5138 33.569 24.468C33.7983 24.3763 34.0275 24.2846 34.2109 24.147C34.165 24.0554 34.165 23.9178 34.165 23.7803C34.2567 23.4594 34.4859 23.1843 34.761 23.1843C34.8527 23.1843 34.9444 23.2302 35.036 23.3219C35.2194 23.0926 35.357 22.8634 35.4486 22.5884C35.4945 22.4967 35.4486 22.4508 35.4028 22.405C35.3111 22.3591 35.2194 22.1758 35.2653 21.9007Z" fill="url(#paint7_linear)"/>
<path d="M35.2653 21.9007C35.3111 21.6715 35.4945 21.4423 35.6779 21.3506C35.7237 21.3047 35.8154 21.2589 35.8154 21.1672C35.8154 20.938 35.7695 20.7088 35.7237 20.5254C35.632 20.6171 35.4945 20.7088 35.357 20.7088C35.0819 20.7088 34.9444 20.4795 35.036 20.1586C35.0819 19.9753 35.1736 19.8377 35.2653 19.746C35.1277 19.6085 34.9444 19.471 34.7151 19.4251C34.6693 19.4251 34.5776 19.471 34.5318 19.5168C34.3942 19.746 34.2109 19.8836 34.0275 19.8836C33.8441 19.8836 33.7066 19.746 33.6607 19.5168C33.6607 19.4251 33.6149 19.4251 33.5232 19.4251C33.3398 19.5168 33.1106 19.6085 32.9272 19.7002C32.9731 19.7919 32.9731 19.9294 32.9272 20.067C32.8355 20.3879 32.6063 20.6629 32.3313 20.6629C32.2396 20.6629 32.1937 20.6629 32.1479 20.6171C32.102 20.5712 32.0104 20.6171 31.9645 20.6629C31.827 20.8463 31.6895 21.0755 31.5978 21.3047C31.5519 21.3964 31.5978 21.4423 31.6436 21.4881C31.827 21.5798 31.8728 21.7632 31.827 21.9924C31.7811 22.2216 31.5978 22.4508 31.4144 22.5425C31.3685 22.5884 31.2769 22.6342 31.2769 22.7259C31.2769 22.9093 31.2769 23.0926 31.3227 23.276C31.4144 23.1843 31.5061 23.1385 31.6436 23.1385C31.9187 23.1385 32.0562 23.3677 31.9645 23.6886C31.9187 23.8261 31.827 24.0095 31.7353 24.1012C31.9187 24.2846 32.102 24.4221 32.3313 24.5138C32.3771 24.5138 32.4688 24.468 32.5146 24.4221C32.6063 24.1929 32.8355 24.0095 33.0648 24.0095C33.294 24.0095 33.4315 24.147 33.4315 24.3763C33.4315 24.468 33.4774 24.5138 33.569 24.468C33.7983 24.3763 34.0275 24.2846 34.2109 24.147C34.165 24.0554 34.165 23.9178 34.165 23.7803C34.2567 23.4594 34.4859 23.1843 34.761 23.1843C34.8527 23.1843 34.9444 23.2302 35.036 23.3219C35.2194 23.0926 35.357 22.8634 35.4486 22.5884C35.4945 22.4967 35.4486 22.4508 35.4028 22.405C35.3111 22.3591 35.2194 22.1758 35.2653 21.9007Z" fill="url(#paint8_linear)"/>
<path d="M34.2474 22.4866C34.5446 21.9858 34.4854 21.4017 34.1153 21.1821C33.7451 20.9624 33.2041 21.1904 32.907 21.6912C32.6098 22.192 32.669 22.776 33.0391 22.9957C33.4093 23.2153 33.9503 22.9874 34.2474 22.4866Z" fill="#FDF0E9"/>
<path d="M18.3032 15.4367C18.1656 15.4367 18.0739 15.345 18.0739 15.2075C18.0281 13.2362 19.3117 11.3107 20.8704 10.8523C21.5581 10.6689 22.2457 10.7606 22.7958 11.1732C23.4835 11.6775 23.8961 12.5944 23.8961 13.6488C23.8961 13.7863 23.8044 13.878 23.6669 13.878C23.5294 13.878 23.4377 13.7863 23.4377 13.6488C23.4377 12.7319 23.1168 11.9525 22.5208 11.54C22.1082 11.219 21.5581 11.1274 21.0079 11.3107C19.6326 11.7233 18.5324 13.4654 18.5324 15.2075C18.5324 15.2991 18.4407 15.3908 18.3032 15.4367Z" fill="#DA3926"/>
<path d="M21.3748 16.5828C21.3289 16.5828 21.2372 16.5369 21.2372 16.4911C21.1914 16.3994 21.2372 16.3077 21.3289 16.2619L23.7128 15.0241C23.8045 14.9782 23.8962 15.0241 23.942 15.1158C23.9878 15.2075 23.942 15.2992 23.8503 15.345L21.4664 16.5828C21.4664 16.5828 21.4206 16.5828 21.3748 16.5828Z" fill="#DA3926"/>
<path d="M18.8991 18.0957C18.8991 18.3249 18.7615 18.5083 18.5782 18.5083C17.9364 18.5083 17.4321 17.9124 17.3862 17.0413C17.3862 16.1703 17.8447 15.2534 18.5323 14.8867C18.7157 14.795 18.8532 14.9325 18.8532 15.1159L18.8991 18.0957Z" fill="#DA3926"/>
<path d="M24.7213 13.4196H23.2085V17.1329H24.7213V13.4196Z" fill="#DA3926"/>
<path d="M21.2831 17.0413C21.5363 17.0413 21.7416 16.7745 21.7416 16.4453C21.7416 16.1162 21.5363 15.8494 21.2831 15.8494C21.03 15.8494 20.8247 16.1162 20.8247 16.4453C20.8247 16.7745 21.03 17.0413 21.2831 17.0413Z" fill="#DA3926"/>
<defs>
<linearGradient id="paint0_linear" x1="45.7156" y1="31.5165" x2="2.54204" y2="29.9334" gradientUnits="userSpaceOnUse">
<stop offset="0.1072" stop-color="#EA7834"/>
<stop offset="0.2998" stop-color="#EB7936"/>
<stop offset="0.3692" stop-color="#ED7E3D"/>
<stop offset="0.4187" stop-color="#F18648"/>
<stop offset="0.4584" stop-color="#F79259"/>
<stop offset="0.4912" stop-color="#FFA16E"/>
<stop offset="0.5151" stop-color="#FA965E"/>
<stop offset="0.5576" stop-color="#F38748"/>
<stop offset="0.608" stop-color="#EE7B37"/>
<stop offset="0.6702" stop-color="#EB732C"/>
<stop offset="0.7576" stop-color="#E96E25"/>
<stop offset="1" stop-color="#E86D23"/>
</linearGradient>
<linearGradient id="paint1_linear" x1="56.6993" y1="6.64295" x2="-25.1377" y2="58.97" gradientUnits="userSpaceOnUse">
<stop stop-color="white"/>
<stop offset="0.00266033" stop-color="#FBFBFB"/>
<stop offset="0.036571" stop-color="#D3D2D2"/>
<stop offset="0.0732729" stop-color="#AFAEAE"/>
<stop offset="0.1146" stop-color="#8F8E8E"/>
<stop offset="0.1602" stop-color="#747272"/>
<stop offset="0.2117" stop-color="#5E5C5C"/>
<stop offset="0.2719" stop-color="#4D4B4B"/>
<stop offset="0.3464" stop-color="#424040"/>
<stop offset="0.4507" stop-color="#3B3939"/>
<stop offset="0.7404" stop-color="#393737"/>
</linearGradient>
<linearGradient id="paint2_linear" x1="29.1036" y1="28.8274" x2="38.1863" y2="26.3502" gradientUnits="userSpaceOnUse">
<stop/>
<stop offset="1" stop-opacity="0"/>
</linearGradient>
<linearGradient id="paint3_linear" x1="14.3336" y1="27.9722" x2="32.3071" y2="23.7405" gradientUnits="userSpaceOnUse">
<stop/>
<stop offset="1" stop-opacity="0"/>
</linearGradient>
<linearGradient id="paint4_linear" x1="19.5107" y1="39.8395" x2="24.4292" y2="40.3966" gradientUnits="userSpaceOnUse">
<stop stop-color="white"/>
<stop offset="0.00266033" stop-color="#FBFBFB"/>
<stop offset="0.036571" stop-color="#D3D2D2"/>
<stop offset="0.0732729" stop-color="#AFAEAE"/>
<stop offset="0.1146" stop-color="#8F8E8E"/>
<stop offset="0.1602" stop-color="#747272"/>
<stop offset="0.2117" stop-color="#5E5C5C"/>
<stop offset="0.2719" stop-color="#4D4B4B"/>
<stop offset="0.3464" stop-color="#424040"/>
<stop offset="0.4507" stop-color="#3B3939"/>
<stop offset="0.7404" stop-color="#393737"/>
</linearGradient>
<linearGradient id="paint5_linear" x1="23.9883" y1="8.86399" x2="2.08265" y2="33.2845" gradientUnits="userSpaceOnUse">
<stop offset="0.1072" stop-color="#EA7834"/>
<stop offset="0.2051" stop-color="#EB7936"/>
<stop offset="0.2473" stop-color="#ED7F3D"/>
<stop offset="0.2788" stop-color="#F2874A"/>
<stop offset="0.3048" stop-color="#F8945B"/>
<stop offset="0.3238" stop-color="#FFA16E"/>
<stop offset="0.3299" stop-color="#FD9D68"/>
<stop offset="0.37" stop-color="#F28342"/>
<stop offset="0.4023" stop-color="#EB732B"/>
<stop offset="0.4227" stop-color="#E86D23"/>
</linearGradient>
<linearGradient id="paint6_linear" x1="38.5118" y1="17.6748" x2="22.9864" y2="34.9826" gradientUnits="userSpaceOnUse">
<stop offset="0.1072" stop-color="#EA7834"/>
<stop offset="0.2051" stop-color="#EB7936"/>
<stop offset="0.2473" stop-color="#ED7F3D"/>
<stop offset="0.2788" stop-color="#F2874A"/>
<stop offset="0.3048" stop-color="#F8945B"/>
<stop offset="0.3238" stop-color="#FFA16E"/>
<stop offset="0.3299" stop-color="#FD9D68"/>
<stop offset="0.37" stop-color="#F28342"/>
<stop offset="0.4023" stop-color="#EB732B"/>
<stop offset="0.4227" stop-color="#E86D23"/>
</linearGradient>
<linearGradient id="paint7_linear" x1="38.3783" y1="13.84" x2="30.8965" y2="26.491" gradientUnits="userSpaceOnUse">
<stop offset="0.1072" stop-color="#EA7834"/>
<stop offset="0.2933" stop-color="#FFA16E"/>
<stop offset="0.3109" stop-color="#FD9D68"/>
<stop offset="0.4271" stop-color="#F28342"/>
<stop offset="0.5208" stop-color="#EB732B"/>
<stop offset="0.5798" stop-color="#E86D23"/>
</linearGradient>
<linearGradient id="paint8_linear" x1="38.3783" y1="13.84" x2="30.8965" y2="26.491" gradientUnits="userSpaceOnUse">
<stop offset="0.1072" stop-color="#EA7834"/>
<stop offset="0.2933" stop-color="#FFA16E"/>
<stop offset="0.3109" stop-color="#FD9D68"/>
<stop offset="0.4271" stop-color="#F28342"/>
<stop offset="0.5208" stop-color="#EB732B"/>
<stop offset="0.5798" stop-color="#E86D23"/>
</linearGradient>
</defs>
</svg>
