<svg width="48" height="48" viewBox="0 0 48 48" fill="none" xmlns="http://www.w3.org/2000/svg">
<path d="M43.9757 27.6387L43.9298 29.1531C43.9298 29.7038 43.6545 30.2086 43.1497 30.5298L24.7479 41.1304C24.2431 41.4057 23.6465 41.4057 23.1417 41.1304L4.78581 30.5298C4.18924 30.1627 3.95979 29.5661 4.00568 28.8778V27.96L4.05157 25.9867C4.05157 25.436 4.23513 26.3997 4.78581 26.0785H7.72276L23.1876 17.13C23.6924 16.8546 24.289 16.8546 24.7938 17.13L40.2586 26.0785L43.5168 24.8853C44.1593 25.436 43.9757 27.0881 43.9757 27.6387Z" fill="url(#paint0_linear)"/>
<path d="M43.93 25.9868C43.93 26.5375 43.6547 27.0423 43.1499 27.3635L24.7481 38.0099C24.2433 38.2853 23.6467 38.2853 23.1419 38.0099L4.78599 27.3635C4.23531 27.0423 4.00586 26.5375 4.00586 25.9868C4.00586 25.4361 4.2812 24.9313 4.78599 24.6101L23.1878 13.9636C23.6926 13.6883 24.2892 13.6883 24.794 13.9636L36.45 20.7553L43.1499 24.6101C43.7006 24.9313 43.93 25.4361 43.93 25.9868Z" fill="url(#paint1_linear)"/>
<path d="M6.25439 30.5296V29.4742L18.9659 36.6789V37.8261L6.25439 30.5296Z" fill="#FDF0E9"/>
<path d="M20.9848 39.0193C21.2382 39.0193 21.4437 38.7522 21.4437 38.4227C21.4437 38.0933 21.2382 37.8262 20.9848 37.8262C20.7313 37.8262 20.5259 38.0933 20.5259 38.4227C20.5259 38.7522 20.7313 39.0193 20.9848 39.0193Z" fill="url(#paint2_linear)"/>
<path opacity="0.79" d="M26.6294 38.1934L41.9566 29.2449" stroke="#FDF0E9" stroke-width="0.5" stroke-miterlimit="10" stroke-linecap="round" stroke-linejoin="round"/>
<path opacity="0.79" d="M26.7668 38.9735L42.094 30.025" stroke="#FDF0E9" stroke-width="0.5" stroke-miterlimit="10" stroke-linecap="round" stroke-linejoin="round"/>
<path opacity="0.64" d="M12.2593 27.7238L34.8314 22.9119L28.226 17.7501L12.2593 27.7238Z" fill="url(#paint3_linear)"/>
<path opacity="0.64" d="M19.8213 32.3716L36.8816 27.9972L35.788 22.3104L19.8213 32.3716Z" fill="url(#paint4_linear)"/>
<path d="M12.1718 27.7239L11.3407 27.3302C11.2969 27.2865 11.2532 27.2427 11.2532 27.199V24.2243C11.2532 24.1369 11.2969 24.0494 11.3844 24.0494C11.7781 23.9619 12.828 23.6119 12.828 22.3871C12.828 20.8998 12.0843 21.0748 12.0843 21.0748L11.2532 20.6373V17.3565C11.2532 17.094 11.3844 16.8753 11.6031 16.7441L28.6197 7.03281C28.7072 6.98906 28.7947 6.98906 28.8822 7.03281L29.8008 7.42651L12.303 17.8814L12.5655 20.6811L13.9216 21.6872L14.4903 23.1745L12.0843 25.4929L12.1718 27.7239Z" fill="url(#paint5_linear)"/>
<path d="M29.2758 12.7632C29.2758 13.1569 29.4945 13.4194 29.8007 13.4194V17.6188L12.2592 27.68C12.1717 27.7238 12.0842 27.68 12.0842 27.5488V24.4429C12.0842 24.3555 12.128 24.3117 12.2155 24.268C12.9591 24.093 13.484 23.4368 13.484 22.6494C13.484 21.8183 12.8716 21.1184 12.0842 20.9871V17.8813C12.0842 17.7063 12.1717 17.5751 12.303 17.4876L29.8007 7.38263V11.6696C29.4945 11.8883 29.2758 12.3257 29.2758 12.7632Z" fill="#FDF0E9"/>
<path d="M15.6714 17.5314L27.1325 11.101C27.1762 11.101 27.1762 11.101 27.2199 11.101C27.3512 11.1448 27.7011 11.3197 27.7011 11.3197L27.3074 16.744C27.3074 16.744 27.3074 16.7878 27.2637 16.7878L16.1089 23.8306C16.0651 23.8306 15.6277 23.5682 15.6277 23.5244L15.6714 17.5314C15.6277 17.5752 15.6277 17.5314 15.6714 17.5314Z" fill="url(#paint6_linear)"/>
<path d="M16.0647 17.7937L27.6133 11.2758C27.657 11.2758 27.7007 11.2758 27.7007 11.3196V16.9626C27.7007 16.9626 27.7007 17.0063 27.657 17.0063L16.1085 23.8305C16.0647 23.8305 16.021 23.8305 16.021 23.7867L16.0647 17.7937C16.021 17.7937 16.0647 17.7937 16.0647 17.7937Z" fill="url(#paint7_linear)"/>
<path d="M19.8705 32.5357L19.0394 32.142C18.9957 32.0982 18.9519 32.0545 18.9519 32.0107V29.0361C18.9519 28.9486 18.9957 28.8611 19.0831 28.8611C19.4768 28.7736 20.5267 28.4237 20.5267 27.1989C20.5267 25.7115 19.7831 25.8865 19.7831 25.8865L18.9519 25.4491V22.1682C18.9519 21.9058 19.0831 21.6871 19.3019 21.5558L36.3184 11.8446C36.4059 11.8008 36.4934 11.8008 36.5809 11.8446L37.4995 12.2383L20.0018 22.6932L20.2642 25.4928L21.6203 26.4989L22.189 27.9863L19.7831 30.3047L19.8705 32.5357Z" fill="url(#paint8_linear)"/>
<path d="M36.9745 17.5752C36.9745 17.9689 37.1932 18.2314 37.4994 18.2314V22.4308L19.9579 32.492C19.8704 32.5358 19.783 32.492 19.783 32.3608V29.255C19.783 29.1675 19.8267 29.1237 19.9142 29.08C20.6578 28.905 21.1828 28.2488 21.1828 27.4614C21.1828 26.6303 20.5704 25.9304 19.783 25.7991V22.6933C19.783 22.5183 19.8704 22.3871 20.0017 22.2996L37.4994 12.1946V16.4816C37.1932 16.7441 36.9745 17.1815 36.9745 17.5752Z" fill="#FDF0E9"/>
<path d="M23.3702 22.3432L34.8312 15.8691C34.8749 15.8691 34.8749 15.8691 34.9187 15.8691C35.0499 15.9128 35.3999 16.0878 35.3999 16.0878L35.0062 21.5558C35.0062 21.5558 35.0062 21.5996 34.9624 21.5996L23.8076 28.6424C23.7639 28.6424 23.3264 28.38 23.3264 28.3362L23.3702 22.3432C23.3264 22.387 23.3264 22.387 23.3702 22.3432Z" fill="url(#paint9_linear)"/>
<path d="M23.7637 22.6057L35.3122 16.1315C35.356 16.1315 35.3997 16.1315 35.3997 16.1753V21.8183C35.3997 21.8183 35.3997 21.862 35.356 21.862L23.8075 28.6862C23.7637 28.6862 23.72 28.6862 23.72 28.6424L23.7637 22.6057C23.7637 22.6494 23.7637 22.6057 23.7637 22.6057Z" fill="url(#paint10_linear)"/>
<defs>
<linearGradient id="paint0_linear" x1="45.7148" y1="29.9447" x2="2.49788" y2="28.36" gradientUnits="userSpaceOnUse">
<stop offset="0.1072" stop-color="#EA7834"/>
<stop offset="0.2998" stop-color="#EB7936"/>
<stop offset="0.3692" stop-color="#ED7E3D"/>
<stop offset="0.4187" stop-color="#F18648"/>
<stop offset="0.4584" stop-color="#F79259"/>
<stop offset="0.4912" stop-color="#FFA16E"/>
<stop offset="0.5151" stop-color="#FA965E"/>
<stop offset="0.5576" stop-color="#F38748"/>
<stop offset="0.608" stop-color="#EE7B37"/>
<stop offset="0.6702" stop-color="#EB732C"/>
<stop offset="0.7576" stop-color="#E96E25"/>
<stop offset="1" stop-color="#E86D23"/>
</linearGradient>
<linearGradient id="paint1_linear" x1="56.7104" y1="5.04546" x2="-25.2089" y2="57.4251" gradientUnits="userSpaceOnUse">
<stop stop-color="white"/>
<stop offset="0.00266033" stop-color="#FBFBFB"/>
<stop offset="0.036571" stop-color="#D3D2D2"/>
<stop offset="0.0732729" stop-color="#AFAEAE"/>
<stop offset="0.1146" stop-color="#8F8E8E"/>
<stop offset="0.1602" stop-color="#747272"/>
<stop offset="0.2117" stop-color="#5E5C5C"/>
<stop offset="0.2719" stop-color="#4D4B4B"/>
<stop offset="0.3464" stop-color="#424040"/>
<stop offset="0.4507" stop-color="#3B3939"/>
<stop offset="0.7404" stop-color="#393737"/>
</linearGradient>
<linearGradient id="paint2_linear" x1="19.4831" y1="38.2758" x2="24.4065" y2="38.8335" gradientUnits="userSpaceOnUse">
<stop stop-color="white"/>
<stop offset="0.00266033" stop-color="#FBFBFB"/>
<stop offset="0.036571" stop-color="#D3D2D2"/>
<stop offset="0.0732729" stop-color="#AFAEAE"/>
<stop offset="0.1146" stop-color="#8F8E8E"/>
<stop offset="0.1602" stop-color="#747272"/>
<stop offset="0.2117" stop-color="#5E5C5C"/>
<stop offset="0.2719" stop-color="#4D4B4B"/>
<stop offset="0.3464" stop-color="#424040"/>
<stop offset="0.4507" stop-color="#3B3939"/>
<stop offset="0.7404" stop-color="#393737"/>
</linearGradient>
<linearGradient id="paint3_linear" x1="11.7289" y1="27.7785" x2="25.6413" y2="21.4652" gradientUnits="userSpaceOnUse">
<stop/>
<stop offset="1" stop-opacity="0"/>
</linearGradient>
<linearGradient id="paint4_linear" x1="19.2909" y1="32.3388" x2="33.2033" y2="26.0255" gradientUnits="userSpaceOnUse">
<stop/>
<stop offset="1" stop-opacity="0"/>
</linearGradient>
<linearGradient id="paint5_linear" x1="23.1416" y1="23.1483" x2="12.8204" y2="0.190137" gradientUnits="userSpaceOnUse">
<stop offset="0.1072" stop-color="#EA7834"/>
<stop offset="0.2998" stop-color="#EB7936"/>
<stop offset="0.3692" stop-color="#ED7E3D"/>
<stop offset="0.4187" stop-color="#F18648"/>
<stop offset="0.4584" stop-color="#F79259"/>
<stop offset="0.4912" stop-color="#FFA16E"/>
<stop offset="0.5151" stop-color="#FA965E"/>
<stop offset="0.5576" stop-color="#F38748"/>
<stop offset="0.608" stop-color="#EE7B37"/>
<stop offset="0.6702" stop-color="#EB732C"/>
<stop offset="0.7576" stop-color="#E96E25"/>
<stop offset="1" stop-color="#E86D23"/>
</linearGradient>
<linearGradient id="paint6_linear" x1="26.0128" y1="22.8273" x2="20.946" y2="16.5356" gradientUnits="userSpaceOnUse">
<stop offset="0.1072" stop-color="#EA7834"/>
<stop offset="0.2998" stop-color="#EB7936"/>
<stop offset="0.3692" stop-color="#ED7E3D"/>
<stop offset="0.4187" stop-color="#F18648"/>
<stop offset="0.4584" stop-color="#F79259"/>
<stop offset="0.4912" stop-color="#FFA16E"/>
<stop offset="0.5151" stop-color="#FA965E"/>
<stop offset="0.5576" stop-color="#F38748"/>
<stop offset="0.608" stop-color="#EE7B37"/>
<stop offset="0.6702" stop-color="#EB732C"/>
<stop offset="0.7576" stop-color="#E96E25"/>
<stop offset="1" stop-color="#E86D23"/>
</linearGradient>
<linearGradient id="paint7_linear" x1="19.1791" y1="7.42793" x2="26.7028" y2="35.8006" gradientUnits="userSpaceOnUse">
<stop stop-color="white"/>
<stop offset="0.00266033" stop-color="#FBFBFB"/>
<stop offset="0.036571" stop-color="#D3D2D2"/>
<stop offset="0.0732729" stop-color="#AFAEAE"/>
<stop offset="0.1146" stop-color="#8F8E8E"/>
<stop offset="0.1602" stop-color="#747272"/>
<stop offset="0.2117" stop-color="#5E5C5C"/>
<stop offset="0.2719" stop-color="#4D4B4B"/>
<stop offset="0.3464" stop-color="#424040"/>
<stop offset="0.4507" stop-color="#3B3939"/>
<stop offset="0.7404" stop-color="#393737"/>
</linearGradient>
<linearGradient id="paint8_linear" x1="30.8489" y1="27.9681" x2="20.5278" y2="5.00995" gradientUnits="userSpaceOnUse">
<stop offset="0.1072" stop-color="#EA7834"/>
<stop offset="0.2998" stop-color="#EB7936"/>
<stop offset="0.3692" stop-color="#ED7E3D"/>
<stop offset="0.4187" stop-color="#F18648"/>
<stop offset="0.4584" stop-color="#F79259"/>
<stop offset="0.4912" stop-color="#FFA16E"/>
<stop offset="0.5151" stop-color="#FA965E"/>
<stop offset="0.5576" stop-color="#F38748"/>
<stop offset="0.608" stop-color="#EE7B37"/>
<stop offset="0.6702" stop-color="#EB732C"/>
<stop offset="0.7576" stop-color="#E96E25"/>
<stop offset="1" stop-color="#E86D23"/>
</linearGradient>
<linearGradient id="paint9_linear" x1="33.7201" y1="27.6472" x2="28.6533" y2="21.3555" gradientUnits="userSpaceOnUse">
<stop offset="0.1072" stop-color="#EA7834"/>
<stop offset="0.2998" stop-color="#EB7936"/>
<stop offset="0.3692" stop-color="#ED7E3D"/>
<stop offset="0.4187" stop-color="#F18648"/>
<stop offset="0.4584" stop-color="#F79259"/>
<stop offset="0.4912" stop-color="#FFA16E"/>
<stop offset="0.5151" stop-color="#FA965E"/>
<stop offset="0.5576" stop-color="#F38748"/>
<stop offset="0.608" stop-color="#EE7B37"/>
<stop offset="0.6702" stop-color="#EB732C"/>
<stop offset="0.7576" stop-color="#E96E25"/>
<stop offset="1" stop-color="#E86D23"/>
</linearGradient>
<linearGradient id="paint10_linear" x1="26.8866" y1="12.2479" x2="34.4104" y2="40.6206" gradientUnits="userSpaceOnUse">
<stop stop-color="white"/>
<stop offset="0.00266033" stop-color="#FBFBFB"/>
<stop offset="0.036571" stop-color="#D3D2D2"/>
<stop offset="0.0732729" stop-color="#AFAEAE"/>
<stop offset="0.1146" stop-color="#8F8E8E"/>
<stop offset="0.1602" stop-color="#747272"/>
<stop offset="0.2117" stop-color="#5E5C5C"/>
<stop offset="0.2719" stop-color="#4D4B4B"/>
<stop offset="0.3464" stop-color="#424040"/>
<stop offset="0.4507" stop-color="#3B3939"/>
<stop offset="0.7404" stop-color="#393737"/>
</linearGradient>
</defs>
</svg>
